EMAIL;WEBSITE;NAME;ADDRESS;PLZ;CITY;PHONE
info@dus.de;http://www.dus.de;Diringer & Scheidel Bauunternehmung GmbH & Co.KG;Haselmühlweg 50;63741;Aschaffenburg-Damm;['Telefon: (06021) 3 44-0', 'Fax: (06021) 3 44-1 02']
info@kraus-bau.net;http://www.kraus-bau.net;KRAUS Bau-, Montage und Sanierungs GmbH;Alter Graben 7;63762;Großostheim-Wenigumstadt;['Telefon: (06026) 43 79', 'Fax: (06026) 85 95']
mail@xxl-bauteam.de;http://www.xxl-bauteam.de;XXL-bauteam GmbH;Alt-Hausen 34;60488;Frankfurt-Niederursel;['Telefon: (069) 25 78 04 90', 'Fax: (069) 25 78 04 92']
info@bam-deutschland.de;http://www.bam-deutschland.de;BAM Deutschland AG;Westerbachstr. 110;65936;Frankfurt-Sossenheim;['Telefon: (069) 97 90 10', 'Fax: (069) 97 90 16 45']
info@eugen-hofmann.de;http://www.eugen-hofmann.de;Eugen Hofmann GmbH;Kurmainzer Str. 39;65929;Frankfurt-Höchst;['Telefon: (069) 30 40 57', 'Fax: (069) 31 58 77']
torstenkeil@ymail.com;No Website Found;B & T Keil Bauunternehmung GmbH;Johann-Sittig-Str. 4;65931;Frankfurt-Sindlingen;['Telefon: (069) 51 65 05', 'Fax: (069) 51 97 17']
kontakt@henning-bau-gmbh.de;http://www.henning-bau-gmbh.de;Henning Bau GmbH;Im Boden 12;65795;Hattersheim;['Telefon: (06190) 88 81 60', 'Fax: (06190) 8 88 16 26']
info@boemmelbau.de;http://www.boemmelbau.de;Bömmel Bau GmbH;Am Steinlein 1A;97753;Karlstadt;['Telefon: (09353) 98 48 50', 'Fax: (09353) 9 84 85-29']
info@es-bau-altfeld.de;http://www.handwerker-fuer-alle.de;ES Bau Alfred GmbH;Max-Braun-Str. 6;97828;Marktheidenfeld-Altfeld;['Telefon: (09391) 5 04-1 01']
info@haas-bauunternehmen.de;http://www.haas-bauunternehmen.de;HAAS JOSEF GmbH;Gewerbestr. 33;97833;Frammersbach;['Telefon: (09355) 26 35', 'Fax: (09355) 76 70']
info@schaefer-geis.de;http://www.schaefer-geis.de;Schäfer & Geis GmbH;Siemensstr. 7;97855;Triefenstein-Lengfurt;['Telefon: (09395) 87 82 57', 'Fax: (09395) 87 82 58']
info@kunkel-bau.de;http://www.kunkel-bau.de;Kunkel Bau GmbH;Krähenweg 9;63814;Mainaschaff;['Telefon: (06021) 77 17 65', 'Telefon: (0172) 6 16 16 31']
p-kissner@t-online.de;No Website Found;Kißner Bauunternehmen und Dachdeckerei;Grüntalstr. 12;63768;Hösbach;['Telefon: (06021) 7 71 68 40', 'Telefon: (01514) 3 26 18 80']
l.karl@spessartmail.de;http://www.leo-karl.de;Karl Leo GmbH;Hauptstr. 17;97901;Altenbuch;['Telefon: (09392) 88 83', 'Fax: (09392) 9 84 69 66']
peter.hasenstab@t-online.de;No Website Found;Hasenstab Bauunternehmen;Wächterstr. 48;63860;Rothenbuch;['Telefon: (06094) 14 80']
info@bauschmitt.de;http://www.bauschmitt.de;Bauunternehmen Schmitt GmbH;Werntalstr. 40;97753;Karlstadt-Stetten;['Telefon: (09360) 6 90']
info@michel-bau.de;http://www.michel-bau.de;Michel Bau GmbH;Wilhelmstr. 105;63911;Klingenberg;['Telefon: (09372) 99 76-0']
info@bdl-untermain.de;http://www.bdl-untermain.de;BDL BauDienstLeistungen Untermain GmbH;Dieselstr. 5;63920;Großheubach;['Telefon: (09371) 9 48 96-0']
kontakt@arge-bau.eu;http://www.arge-bau.eu;ARGE-Bau UG & Co. KG;Am Markt 7;63776;Mömbris;['Telefon: (06029) 9 93 98 21']
info@trautmann-bau.de;http://www.trautmann-bau.de;Trautmann W. Baugesellschaft mbH & Co. KG;Schafbrückenweg 10;63834;Sulzbach;['Telefon: (06028) 97 00-0']
heiko.hoerning@gmail.com;No Website Found;Hörning Heiko;Schleifweg 5;97834;Birkenfeld;['Telefon: 01511 1 60 46 32']
kappesbau@t-online.de;http://www.bauunternehmung-kappes.de;Kappes Bauunternehmung;Boschstr. 5;63924;Kleinheubach;['Telefon: (09371) 42 23']
info@hpschuhmacher.de;http://www.hpschuhmacher.de;Schuhmacher Hans Peter GmbH;Großlaudenbacher Str. 50;63828;Kleinkahl-Großlaudenbach;['Telefon: (06024) 16 26']
roro-m@t-online.de;http://www.roro-moembris.de;RoRo plant & baut GmbH;Hanfwiesenstr. 38;63776;Mömbris-Mensengesäß;['Telefon: (06029) 41 31']
ffbau@aol.com;No Website Found;FF Bau e.K.;Womburgstr. 42;63776;Mömbris-Strötzbach;['Telefon: (06029) 14 62', 'Telefon: (06029) 80 51']
info@mdbau-gmbh.de;http://www.mdbau-gmbh.de;M.D. Bau GmbH;Weinbergstr. 5;63571;Gelnhausen-Roth;['Telefon: (06051) 88 96 79', 'Telefon: (0178) 4 84 40 55', 'Fax: (06051) 88 94 62']
schwinn-gross@t-online.de;http://www.schwinn-gross.de;Adam Schwinn Karl-Wilhelm Gross GmbH Bauunternehmen;Werkstr. 17;64732;Bad König;['Telefon: (06063) 6 30', 'Telefon: (06063) 57 97 30', 'Fax: (06063) 56 28']
mail@hf-baugeschaeft.de;http://www.hf-baugeschaeft.de;HF Baugeschäft GmbH;Pfungstädter Str. 35;64297;Darmstadt-Eberstadt;['Telefon: (06151) 8 60 28 98', 'Fax: (06151) 8 60 28 99']
cv.gmbh@web.de;No Website Found;C & V Abbruch und Umbau GmbH;An der Schwarzbachmühle 83;60529;Frankfurt-Schwanheim;['Telefon: (069) 38 01 33 58', 'Telefon: (0171) 7 13 97 41', 'Fax: (069) 38 01 33 59']
info@turnusbau.de;http://www.turnusbau.de;Baugesellschaft Turnus mbH;Liebfrauenstr. 13;64839;Münster;['Telefon: (06071) 3 53 82', 'Fax: (06071) 3 30 90']
info@weberbau-gmbh.de;http://www.weberbau-gmbh.de;Weber Bau GmbH;Robert-Bosch-Str. 22;63584;Gründau-Lieblos;['Telefon: (06051) 1 75 38', 'Fax: (06051) 1 50 78']
info@bau-hess.de;http://www.bau-hess.de;Hess GmbH Bau- u. Fliesenfachgeschäft;In der Aue 27;64385;Reichelsheim;['Telefon: (06164) 5 47 47', 'Fax: (06164) 5 47 49']
bauunternehmung-w.schmidt@t-online.de;http://www.schmidt-bau-ffm.de;Bauunternehmung Wilhelm Schmidt GmbH;Bornwiesenweg 63;60322;Frankfurt-Nordend-West;['Telefon: (069) 55 25 05', 'Fax: (069) 55 70 72']
info@bauunternehmen-buedingen.de;http://www.bauunternehmen-buedingen.de;Kaltenschnee Dirk Maurermeister;Bogenstr. 5;63654;Büdingen-Aulendiebach;['Telefon: (06042) 9 78 88 25', 'Telefon: (0171) 3 75 20 52', 'Fax: (06042) 9 78 93 90']
info@cayanbau.com;http://www.cayanbau.com;CAYAN-BAU GmbH;Eschborner Landstr. 42-50;60489;Frankfurt a. M.-Rödelheim;['Telefon: (069) 66 96 46 09', 'Fax: (069) 66 96 46 10']
office@miserre.de;http://www.miserre.de;Thomas Miserre Bauunternehmen GmbH;Ferdinand-Porsche-Ring 23;63110;Rodgau-Jügesheim;['Telefon: (06106) 64 57 29', 'Telefon: (0171) 4 61 95 53', 'Fax: (06106) 64 58 56']
info@zadrobau.de;http://www.zadrobau.de;Baugeschäft Ivan Zadro GmbH;Klöcknerstr. 4a;63110;Rodgau-Nieder-Roden;['Telefon: (06106) 7 93 61', 'Fax: (06106) 73 34 35']
jedinabau@hotmail.com;http://www.jedina-bau.com;Jedina Bau GmbH;Heinrich-Heine-Str. 21;64839;Münster;['Telefon: (0173) 3 53 01 59']
info@hochbau-engel.de;http://www.hochbau-engel.de;Hochbau Engel GmbH;Otto-Hahn-Str. 21;63456;Hanau-Steinheim;['Telefon: (06181) 96 95 70']
info@fwmbau.de;http://www.fwmbau.de;F. W. Müller Hoch-, Tief- und Stahlbetonbau GmbH & Co KG;Merianstr. 31;63069;Offenbach;['Telefon: (069) 83 10 34', 'Fax: (069) 83 20 10']
baugeschaeft.herbert.forst@t-online.de;No Website Found;Forst Herbert;Brückenauer Str. 2a;63607;Wächtersbach-Aufenau;['Telefon: (06053) 49 83', 'Telefon: (0173) 3 27 42 07', 'Telefon: (0173) 3 27 42 07', 'Fax: (06053) 70 09 10']
info@guen-bau.de;http://www.guen-bau.de;Gün Baugesellschaft mbH;Am Dornbusch 6;64390;Erzhausen;['Telefon: (06150) 98 03 04', 'Fax: (06150) 98 03 05']
anexbauservice@t-online.de;No Website Found;ANEX Bauservice GmbH;Max-Planck-Str. 12;61184;Karben-Klein-Karben;['Telefon: (06039) 9 39 67 80']
info@ganzert-hausbau.de;http://www.ganzert-hausbau.de;Ganzert Hausbau GmbH;Breslauer Str. 2;64342;Seeheim-Jugenheim;['Telefon: (06257) 88 55', 'Fax: (06257) 8 33 62']
info@bauunternehmung-gehbauer.de;http://www.bauunternehmung-gehbauer.de;Bauunternehmung Karl Gehbauer GmbH & Co. KG Hoch - und Stahlbetonbau;Schlierbacher Str. 32;64658;Fürth;['Telefon: (06253) 57 51', 'Fax: (06253) 14 07']
bauunternehmen@w-anthes.de;No Website Found;Willi Anthes GmbH;Daimlerstr. 2;61449;Steinbach;['Telefon: (06171) 9 76 40', 'Fax: (06171) 8 55 29']
fdbau@gmx.de;No Website Found;FD Bau;Am Schleifweg 3;64665;Alsbach-Hähnlein-Sandwiese;['Telefon: (0176) 34 94 77 50']
terreno-gmbh@t-online.de;No Website Found;Terreno GmbH;Wiesenaustr. 4;61440;Oberursel-Kirdorf;['Telefon: (06171) 8 83 07 37', 'Telefon: (0171) 8 36 13 96', 'Telefon: (0171) 8 36 13 96']
terreno-gmbh@t-online.de;No Website Found;Terreno GmbH;Gluckensteinweg 46D;61350;Bad Homburg-Kirdorf;['Telefon: (06172) 9 96 60 30', 'Fax: (06172) 9 96 60 50']
info@bv-hochtiefbau.de;http://www.bv-hochtiefbau.de;BV Hoch- und Tiefbau;Raiffeisenstr. 1A;61191;Rosbach-Ober-Rosbach;['Telefon: (06003) 8 29 08 58']
info@bbg-bensheim.de;http://www.bbg-bensheim.de;BBG Baugesellschaft Bergstraße mbH;Darmstädter Str. 123;64625;Bensheim-Auerbach;['Telefon: (06251) 93 56 33', 'Fax: (06251) 70 43 77']
info@jung-reeker.de;http://www.jung-reeker.de;Jung + Reeker GmbH;Gederner Str. 40;63688;Gedern - Ober-Seemen;['Telefon: (06045) 98 37 62', 'Fax: (06045) 98 37 64']
info@hock-bau.de;http://www.hock-bau.de;Hock-Bau GmbH;Feldchenstr. 89;63743;Aschaffenburg-Schweinheim;['Telefon: (06021) 6 65 32', 'Fax: (06021) 6 69 30']
heuster-bau@t-online.de;http://www.heuster-bau.de;Heuster Bau GmbH;Am Gleis 2;97904;Dorfprozelten;['Telefon: (09392) 72 88', 'Fax: (09392) 66 45']
seligenstadt@lbs-immobilien.de;http://www.lbs-immobilien.de/seligenstadt;Sparkassen-Immobilien;Steinweg 2;63500;Seligenstadt;['Telefon: (06182) 89 45 90']
info@r-u-h-bau-gmbh.de;http://www.r-u-h-bau-gmbh.de;R + H Bau GmbH;Seestr. 8;63533;Mainhausen;['Telefon: (06182) 2 29 01', 'Fax: (06182) 78 73 38']
info@bott-bau.de;http://www.bott-bau.de;Bott Bau GmbH, Artur;Ostring 24b;63533;Mainhausen;['Telefon: (06182) 2 27 79']
info@krautwurst-bau.de;http://www.krautwurst-bau.de;Heinz Krautwurst GmbH & Co. KG;Industriering 12;64850;Schaafheim;['Telefon: (06073) 8 73 73', 'Fax: (06073) 8 86 08']
kontakt@sprey.de;http://www.sprey.de;Sprey Bauunternehmen GmbH;Dieselstr. 10;63500;Seligenstadt;['Telefon: (06182) 2 85 63', 'Fax: (06182) 2 04 58']
info@AumannGmbH.de;http://www.aumanngmbh.de;Aumann GmbH;Darmstädter Str. 61;64832;Babenhausen;['Telefon: (06073) 6 00 00', 'Fax: (06073) 60 00 99']
robert.eckert@gmx.de;http://www.rodemich-eckert-bau.homepage.t-online.de;Rodemich & Eckert;Sickenhöfer Str. 10;64832;Babenhausen;['Telefon: (06073) 81 42', 'Fax: (06073) 97 63']
info@hzbau.de;http://www.hzbau.de;HZ Bau- und Montage GmbH;Lachenwörthsweg 2;63500;Seligenstadt;['Telefon: (06182) 8 24 30', 'Fax: (06182) 82 43 20']
info@rwbaugeschaeft.de;http://www.rwbaugeschaeft.de;Winkler Ralf;Friedrich-Ebert-Str. 22a;63500;Seligenstadt;['Telefon: (06182) 15 55', 'Telefon: (0178) 7 80 15 55', 'Fax: (06182) 92 44 33']
faeth@faethbau.de;http://www.faethbau.de;Fäth Bauunternehmung GmbH;Obertorstr. 19;64823;Groß-Umstadt-Kleestadt;['Telefon: (06078) 91 16 16', 'Fax: (06078) 91 16 18']
wackerbau@aol.com;http://www.wackerbau-gross-umstadt.de;Wacker-Bau;Ludwigstr. 10;64823;Groß-Umstadt;['Telefon: (06078) 96 94 34', 'Fax: (06078) 96 94 35']
novo_bauumternehmen_gmbh@t-online.de;No Website Found;Novo Bauunternehmen GmbH;Windfangstr. 27;64823;Groß-Umstadt;['Telefon: (06078) 7 26 70', 'Fax: (06078) 96 95 79']
webmaster@rs-bauunternehmen.de;http://www.rs-bauunternehmen.de;Stang Ralf;Ringstr. 71;64823;Groß-Umstadt;['Telefon: (06078) 7 27 63', 'Fax: (06078) 69 89']
pk-bau@pk-bau.eu;No Website Found;pk-Bau;Kirchstr. 18;63110;Rodgau;['Telefon: 0178 1 65 19 62', 'Telefon: 06106 6 33 11']
moniegel@onlinehome.de;http://www.emo-bau-gmbh.de;Emo-Bau GmbH;Jügesheimer Weg 40;63500;Seligenstadt;['Telefon: (06182) 6 66 46', 'Fax: (06182) 6 68 76']
mail@ewim.eu;http://www.ewim.eu;EWIM Bau und Handels GmbH;Am Neuwirtshaus 1;63457;Hanau-Großauheim;['Telefon: (06181) 6 18 98 22', 'Fax: (06181) 6 18 98 21']
info@kalan-bau.de;http://www.kalan-bau.de;Kalan-Bau GmbH;Kirchbergerstr. 27;64823;Groß-Umstadt;['Telefon: (06078) 96 92 29']
info@ibs-bauservice.eu;No Website Found;IBS Bauservice;Breitwiesenring 13;63110;Rodgau-Nieder-Roden;['Telefon: (06106) 6 25 11 85']
bmwalter@t-online.de;http://www.erdbau-gross-umstadt.de;Walter Transporte & Erdbau e.K.;No Address;64823;Groß-Umstadt;['Telefon: (06078) 63 19', 'Fax: (06078) 58 20']
info-DE@tyco-bspd.com;http://www.tyco-fsbp.com;Tyco Building Services Products Germany GmbH;Senefelder Str. 2;63110;Rodgau;['Telefon: (06106) 8 44 55']
info@wiercimokbau.de;http://www.wiercimokbau.de;Wiercimok Bau GmbH;Senefelder Str. 1k;63110;Rodbau-Nieder-Roden;['Telefon: (06106) 7 79 95 81']
reinhardt_bauunternehmen_gmbh@t-online.de;No Website Found;Reinhardt Bauunternehmen GmbH;Carl-Zeiss-Str. 8;63456;Hanau;['Telefon: (06181) 6 04 09']
KBF-Kirsch@t-online.de;http://www.kbf-kirsch.de;KBF Kaspar Kirsch Bau GmbH;Gewerbepark Birkenhain 24;63589;Linsengericht;['Telefon: (06051) 61 77 77']
larspetersengmbh@t-online.de;http://www.lars-petersen-gmbh.de;Lars Petersen GmbH;Im Weißen Holz 1;64859;Eppertshausen;['Telefon: (06071) 3 45 80', 'Fax: (06071) 3 34 02']
info@baucon-gmbh.de;http://www.baucon-gmbh.de;BAUCON GmbH;Alfred-Delp-Str. 37;63110;Rodgau;['Telefon: (06106) 60 26 67']
info@saniermit.de;http://www.saniermit.de;Saniermit;Auf der Beune 17 17;64839;Münster;['Telefon: (06071) 9 68 59 90', 'Telefon: (0175) 1 69 00 92']
info@bau-herbig.de;http://www.bau-herbig.de;Bau-Herbig GmbH;Dieselstr. 5;63456;Hanau;['Telefon: 0171 4 79 05 04']
Ionpanea@live.de;No Website Found;Ion Panea;Grafenberger Str. 15;63110;Rodgau-Hainhausen;['Telefon: (06106) 6 25 17 10']
alboth@t-online.de;http://www.alboth-bau.de;Bauunternehmung M. Alboth Inhaber Walter Lorenz GmbH;Pfarrgasse 10a;63110;Rodgau;['Telefon: (06106) 35 12']
alboth@t-online.de;No Website Found;Alboth M.;Pfarrgasse 10a;63110;Rodgau;['Telefon: 0172 6 52 68 96']
voigtbauservice@t-online.de;No Website Found;Voigt;Parkstr. 2;63110;Rodgau-Nieder-Roden;['Telefon: (06106) 7 70 99 63', 'Telefon: (0160) 4 47 54 59']
info@ayago.de;http://www.ayago.de;Altra-Computer-Technik GmbH;Rodenbacher Chaussee 6;63457;Hanau;['Telefon: (06181) 36 46 40', 'Fax: (06181) 3 64 64 64']
kontakt@bg-turnus.de;http://www.bg-turnus.de;Schneider & Pfaff GmbH;Liebfrauenstr. 13;64839;Münster;['Telefon: (06071) 3 10 05', 'Fax: (06071) 3 30 90']
info@innwerk.de;http://innwerk.de;Innwerk e.K.;Josef-Bautz-Str. 1;63457;Hanau-Großauheim;['Telefon: (06181) 9 88 89 22']
ber-sb-langenselbold@strabag.com;http://www.strabag.de;Strabag AG;Birkenweiher Str. 9;63505;Langenselbold;['Telefon: (06184) 9 25 00', 'Fax: (06184) 92 51 33']
nechitabauunternehmengmbh@gmx.de;No Website Found;Nechita Bauunternehmen GmbH;Güterstr. 11;64807;Dieburg;['Telefon: (06071) 9 29 98 35']
info@janka.de;http://www.janka.de;Janka GmbH & Co. KG, Ferdinand;Kinzigheimer Weg 110;63450;Hanau;['Telefon: (06181) 29 08 00']
info@dressler-hanau.de;http://www.dressler-gruppe.de;i-PLAN Industrielles Planen und Bauen GmbH;Güterbahnhofstr. 1a;63450;Hanau;['Telefon: (06181) 9 37 90']
info@schwerber-haus.de;http://www.schwerber-haus.de;Schwerber Günter u. Schwerber Ulrich;Obergasse 23;63322;Rödermark;['Telefon: (06074) 9 72 29', 'Fax: (06074) 88 16 91']
info@gotta-bau.de;http://www.gotta-bau.de;Gotta Söhne Bau-GmbH;Max-Planck-Str. 8;63322;Rödermark;['Telefon: (06074) 9 00 28', 'Telefon: (0163) 3 39 00 28', 'Fax: (06074) 9 48 54']
info@ickes-bau.de;http://www.ickes-bau.de;Ickes Bau GmbH;Karlsbader Str. 1a;63571;Gelnhausen;['Telefon: (06051) 6 00 70']
info@ehrlich-bau.de;http://www.ehrlich-bau.de;Ehrlich Achim;Waldblick 20;63589;Linsengericht;['Telefon: (06051) 7 26 85']
steinhart-rebholz@t-online.de;http://www.steinhart-rebholz.com;Steinhart & Rebholz Wohnungsbau GmbH;John-F.-Kennedy-Str. 6;63526;Erlensee;['Telefon: (06183) 9 15 70', 'Fax: (06183) 7 40 45']
mogel@ok-bauservice.de;http://www.ok-bauservice.de;ok Bauservice GmbH;Gelnhäuser Str. 1;63589;Linsengericht;['Telefon: (06051) 97 77 90', 'Fax: (06051) 9 77 79 27']
info@bau-krieg.de;http://www.bau-krieg.de;Krieg Bauunternehmung Krieg GmbH;Hauptstr. 42;63589;Linsengericht-Altenhaßlau;['Telefon: (06051) 7 00 34 03']
info@lf-estrichbau.de;http://www.lf-estrichbau.de;L & Friedrich Estrichbau GmbH;Spessartstr. 26;64846;Groß-Zimmern-Klein-Zimmern;['Telefon: (06071) 95 17 41', 'Telefon: (0172) 6 99 12 11', 'Fax: (06071) 95 17 42']
thomas.forsch@towncountry.de;No Website Found;GEFEB-Gesellschaft für ethisches Bauen;Hirschstr. 11;63450;Hanau;['Telefon: (06181) 9 68 06 23']
m.rimac@t-online.de;No Website Found;Rimac-Bau GmbH;Länderweg 6;63589;Linsengericht;['Telefon: (06051) 7 29 44', 'Telefon: (0171) 5 83 41 75', 'Fax: (06051) 7 54 94']
info@depau-bau.de;http://www.depau-bau.de;Depau Bau e.K.;Gartenstr. 3;64846;Groß-Zimmern-Klein-Zimmern;['Telefon: (06071) 73 64 36', 'Fax: (06071) 73 62 31']
info@kinzighaus.de;http://www.easyhaus.de;Dipl.-Ing. Horst Altstadt Kinzighaus Bau GmbH;Im Stockborn 16;63505;Langenselbold;['Telefon: (06184) 9 32 74 30']
info@b-kbau.de;http://www.b-kbau.de;BK Bauunternehmen GmbH;Herrnstr. 21-23;63450;Hanau;['Telefon: (06181) 9 65 62 76', 'Telefon: (0176) 61 26 87 44', 'Fax: (06181) 9 65 62 75']
info@hrw-dekobau.de;http://www.hrw-dekobau.de;HRW Deko-Bau GmbH;Kleiststr. 5;63526;Erlensee-Langendiebach;['Telefon: (06183) 8 06 96 15']
info@meier-bau.de;http://www.meier-bau.de;Meier-Bau GmbH;Breslauer Str. 6;63452;Hanau;['Telefon: (06181) 1 39 01']
atees.bau@gmail.com;No Website Found;ATEES Bau;Breslauer Str. 10;63452;Hanau;['Telefon: 0176 31 64 29 82']
info@vater-und-soehne.de;http://www.vater-und-soehne.de;Vater & Söhne GmbH & Co. KG;Jacob-Mönch-Str. 5;63073;Offenbach-Bieber;['Telefon: (069) 83 83 80 87']
info@wahna.de;http://www.wahna.com;Wahna Bau & Dienstleistungen;Jahnstr. 19;64846;Groß-Zimmern;['Telefon: (06071) 48 91 85']
dietzenbach@budau.com;http://www.budau.com;P. A. Budau GmbH & Co. KG;Johannes-Gutenberg-Str. 5;63128;Dietzenbach;['Telefon: (06074) 69 62 20', 'Fax: (06074) 6 96 22 29']
i.bilus@bilus.de;http://www.bilus.de;Bilus Bauunternehmen GmbH;Uferweg 18;63571;Gelnhausen;['Telefon: (06051) 1 34 57', 'Fax: (06051) 47 14 15']
info@kick-bau.de;http://www.kick-bau.de;KICK Bauunternehmen GmbH;Ferdinand-Porsche-Str. 2;63073;Offenbach-Bieber;['Telefon: (069) 83 00 52 31', 'Telefon: (0172) 6 85 90 01', 'Telefon: (0172) 6 85 90 01', 'Fax: (069) 93 99 12 65']
info@spbaugmbh.de;No Website Found;Stephan Platt Bau-GmbH;Am Mühlenberg 2;63505;Langenselbold;['Telefon: (06184) 29 46', 'Fax: (06184) 6 35 50']
info@wolff-mueller.de;http://www.wolff-mueller.de;WOLFF & MÜLLER Regionalbau GmbH & Co. KG;Carl-Legien-Str. 16;63073;Offenbach-Bieber;['Telefon: (069) 83 00 98 80']
mail@intercontract.de;http://www.intercontract.de;Heinrich Nalbach GmbH;Assar-Gabrielsson-Str. 20;63128;Dietzenbach-Steinberg;['Telefon: (06074) 2 34 27']
info@azbau-gmbh.de;http://www.azbau-gmbh.de;AZ-Bau GmbH;Siemensstr. 5;63128;Dietzenbach-Steinberg;['Telefon: (06074) 3 71 10', 'Fax: (06074) 37 11 99']
post@lsplanbau.de;http://www.lsplanbau.de;"L&S; PlanBau UG (haftungsbeschränkt)";Bruchköbeler Landstr. 71;63452;Hanau;['Telefon: (06181) 6 18 96 88', 'Fax: (06181) 6 18 95 15']
info@prestige-bau.de;http://www.prestige-bau.com;Prestige Bau GmbH;Bruchköbeler Landstr. 71;63452;Hanau;['Telefon: (06181) 9 97 55 30', 'Fax: (06181) 9 97 55 55']
activbau@gmx.de;No Website Found;Activ Bau- und Bauorganisations GmbH;Max-Planck-Str. 11;63128;Dietzenbach;['Telefon: (06074) 30 19 79']
activbau@gmx.de;No Website Found;Activbau und Projektentwicklung GmbH & Co. KG;Max-Planck-Str. 11;63128;Dietzenbach;['Telefon: (06074) 30 18 72', 'Fax: (06074) 30 19 87']
info@eob-bau.de;http://www.eob-bau.de;Eob Bau GmbH;Assar-Gabrielsson-Str. 10-14;63128;Dietzenbach-Steinberg;['Telefon: (06074) 3 23 93', 'Fax: (06074) 81 59 18']
schulpartner@hochtief.de;http://www.hochtief-schulpartner.de;HOCHTIEF Solutions AG;Rembrücker Str. 15;63150;Heusenstamm;['Telefon: (06104) 6 48 80']
info@bau-malpec.de;http://www.BAU-Malpec.de;Malpec Hanau GmbH;Dresdener Str. 5B;63454;Hanau;['Telefon: (06181) 5 07 13 40', 'Fax: (06181) 5 07 13 43']
info@konceptbau.de;http://www.konceptbau.de;Koncept Bau GmbH;Heinrich-Krumm-Str. 17;63073;Offenbach-Bieber;['Telefon: (069) 93 99 09 49']
info@wkratz.de;http://www.wkratz.de;Kratz GmbH & Co KG;Robert-Koch-Str. 7;63128;Dietzenbach;['Telefon: (06074) 21 68', 'Fax: (06074) 3 36 37']
antonio.lauria@lauria-gmbh.de;http://www.lauria-gmbh.de;Lauria Antonio GmbH;Röntgenstr. 10;64846;Groß-Zimmern;['Telefon: (06071) 4 42 76', 'Telefon: (0171) 5 45 56 17', 'Fax: (06071) 4 39 52']
kloeckner-bau@t-online.de;http://www.kloeckner-bau.de;Klöckner Bernd;Hauptstr. 65;63571;Gelnhausen;['Telefon: (06051) 7 37 51', 'Telefon: (0171) 5 17 97 88']
info@baudienstleistung-hempel.de;http://www.baudienstleistung-hempel.de;Hand in Hand;Südring 2;63165;Mühlheim;['Telefon: (06108) 9 15 43 99']
griesbach-bau@t-online.de;http://www.bauunternehmen-griesbach.de;Griesbach Alfred;Industriestr. 35;63165;Mühlheim;['Telefon: (06108) 7 33 85']
info@bauer-baufachbetrieb.de;http://www.ohlig-gmbh.de;Bauer Baufachbetrieb GmbH;Zeppelinring 9;63165;Mühlheim;['Telefon: (06108) 9 12 40', 'Fax: (06108) 91 24 99']
info@intu-bau.net;http://www.intu-bau.net;INTU Bau Industrie- und Hochbau GmbH;Wilhelm-Röntgen-Str. 22;63477;Maintal-Dörnigheim;['Telefon: (06181) 4 24 08 45']
aa-bau@t-online.de;http://www.aa-bau.de;A & A Bau Ltd.;Schillerstr. 71-73;63165;Mühlheim;['Telefon: (06108) 70 86 06']
mf-bauunternehmen@web.de;No Website Found;MF Bauunternehmen GmbH;Geschwister-Scholl-Str. 73;64354;Reinheim;['Telefon: (06162) 94 27 29', 'Fax: (06162) 94 27 28']
info@baustatt.com;http://www.baustatt.com/;bau statt GmbH;Am Schlehenrech 34;64354;Reinheim;['Telefon: (06162) 80 16 74']
info@baustatt.com;http://www.baustatt.com;bau statt GmbH;Am Schlehenrech 34;64354;Reinheim;['Telefon: (06162) 9 41 31 90']
mail@lambertzbau.de;http://www.lambertzbau.de;Lambertz Hans-Josef;Martin-Niemöller-Str. 66;64354;Reinheim;['Telefon: (06162) 91 14 74']
info@nt-baugmbh.de;http://www.nt-baugmbh.de;N.T. Baugesellschaft mbH;Bleichstr. 3;63165;Mühlheim;['Telefon: (06108) 8 24 08 46']
koerner-bau@arcor.de;http://www.koerner-bau.de;Körner A. Bauunternehmung GmbH;Philipp-Reis-Str. 5;63486;Bruchköbel;['Telefon: (06181) 7 78 48', 'Fax: (06181) 7 24 23']
info@pohl-bau-gmbh.de;http://www.pohl-bau-gmbh.de;Pohl Bau GmbH;Raabestr. 2;63165;Mühlheim;['Telefon: (06108) 82 30 85']
info@bauunternehmung-loew.de;http://www.bauunternehmung-loew.de;Löw Heinrich;Thüringer Str. 11;63477;Maintal;['Telefon: (06181) 49 11 30']
jw@wolfenstaetter-bau.de;http://www.wolfenstaetter-bau.de;Wolfenstätter Bau & Immobilien GmbH;Am Alten Rathaus 45;63303;Dreieich;['Telefon: (06074) 55 95', 'Fax: (06074) 7 09 47']
kontakt@h-m-bau.de;http://www.h-m-bau.de;H & M Bau- u. Dienstleistungsgesellschaft mbH;Hirschbachstr. 11;63599;Biebergemünd;['Telefon: (06050) 90 96 90', 'Fax: (06050) 90 96 91']
info@fischer-maintal.com;http://www.fischer-maintal.com;Fischer E. GmbH;Braubachstr. 5;63477;Maintal;['Telefon: (06181) 4 39 00', 'Fax: (06181) 49 39 51']
horbeld-baugeschaeft@t-online.de;http://www.horbeld.de;Horbeld Helmut;Hauptstr. 38;63639;Flörsbachtal-Lohrhaupten;['Telefon: (06057) 91 99 72', 'Fax: (06057) 91 99 73']
info@steinmetz-bau.de;http://www.steinmetz-bau.de;Steinmetz GmbH Co. KG Georg;Am Alten Bahnhof 4;64395;Brensbach;['Telefon: (06161) 5 23', 'Fax: (06161) 81 63']
kontakt@kran-sakic.de;http://www.kran-sakic.de;Sakic;Kekulestr. 3;63075;Offenbach;['Telefon: 01577 2 48 40 72', 'Fax: 069 20 73 81 76']
info@eckstone-online.com;http://www.eckstone-online.com;EckStone GmbH;Kalkhausstr. 8a;63477;Maintal;['Telefon: (06181) 30 49 77']
info@lehmbau-neuhaus.de;http://www.lehmbau-neuhaus.de;Lehmbau Neuhaus;Beundehöferstr. 4;63549;Ronneburg;['Telefon: (06048) 95 12 08']
info@doering-bau.de;http://www.doering-bau.de;Döring Joachim-Thorsten;Hauptstr. 5;64753;Brombachtal-Kirchbrombach;['Telefon: (06063) 91 10 15', 'Fax: (06063) 57 88 98', 'Fax: (06063) 57 88 98']
fix-bauunternehmung@t-online.de;http://www.fix-bauunternehmung.de;Jean Fix & Söhne Bauunternehmung GmbH;Mittelbucher Str. 3;63477;Maintal-Wachenbuchen;['Telefon: (06181) 8 11 77', 'Fax: (06181) 8 64 47']
info@fair-bau-gmbh.de;http://fair-bau-gmbh.de;FAIRBAU GmbH;Bettinastr. 69;63067;Offenbach;['Telefon: (069) 66 96 76 39']
kontakt@fill-bau.de;http://www.fill-bau.de;Fill Hans-Albert Bauunternehmung GmbH;Johann-Adam-Groh-Str. 6;64753;Brombachtal-Kirchbrombach;['Telefon: (06063) 5 73 21', 'Telefon: (0160) 8 14 69 86', 'Fax: (06063) 47 61']
info@askbaugeschaeft.de;http://www.askbaugeschaeft.de;A.S.K. Baugeschäft GmbH;Steinheimer Str. 8;63075;Offenbach-Bürgel;['Telefon: (069) 89 00 41 54']
wz-bau@gmx.de;http://www.sopata-bauelemente.de;wz Sopata Bau GmbH;Senefelderstr. 178;63069;Offenbach;['Telefon: (069) 80 10 67 39']
info@askom-bau.de;http://www.askom-bau.de;AS-KOM Bau GmbH;Hanauer Str. 38;63486;Bruchköbel;['Telefon: (06181) 37 99 57', 'Fax: (06181) 30 76 76']
info@ek-bau.de;http://www.ek-bau.de;EK-BAU GmbH;Konrad-Adenauer-Str. 12;64401;Groß-Bieberau;['Telefon: (06162) 8 51 54']
projektbau@t-online.de;No Website Found;Keim Haus- u. Erdbau GmbH;Oberdorfstr. 17;63486;Bruchköbel;['Telefon: (06181) 7 52 81', 'Fax: (06181) 7 52 99']
Dieter.Herbig@heimundhaus.net;http://www.heimundhaus.net;"Heim&Haus; Massivbau GmbH";Im Weinberg 2;63486;Bruchköbel-Butterstadt;['Telefon: (06185) 20 03', 'Fax: (06185) 17 45']
info@telo-bau-gmbh.de;http://www.telo-bau-gmbh.de;TELO-Hoch- Tiefbau GmbH;Bruno-Dreßler-Str. 12;63477;Maintal-Bischofsheim;['Telefon: (06109) 6 98 98 40', 'Fax: (06109) 6 98 98 41']
info@bauerbaut.de;http://www.bauerbaut.de;Bauer Gernot und Georg GbR;Montmeyraner Str. 19;64401;Groß-Bieberau;['Telefon: (06162) 36 76', 'Fax: (06162) 91 36 33']
info@inbau-ffm.de;http://www.inbau-frankfurt.de;InBau GmbH;Bruno-Dreßler-Str. 19;63477;Maintal-Bischofsheim;['Telefon: (06109) 5 06 04 09']
mail@bau-reeg.de;http://www.bau-reeg.de;Bauunternehmen Gebrüder Reeg GmbH;Zeller Str. 26;64753;Brombachtal-Langenbrombach;['Telefon: (06063) 23 18', 'Fax: (06063) 5 72 86']
Chowanietz@aol.com;No Website Found;Chowanietz Erich & Sohn GmbH;Bismarckstr. 116;63065;Offenbach;['Telefon: (069) 88 06 50', 'Fax: (069) 88 06 38']
s.schmidtbaugmbh@gmail.com;No Website Found;S-Schmidt Bau GmbH;Gutenbergstr. 4;63477;Maintal-Bischofsheim;['Telefon: (06109) 3 86 01 00']
kontakt@ra-bau.de;http://www.ra-bau.de;RA-Bau GmbH;Arheilger Weg 21;64380;Roßdorf;['Telefon: (06154) 5 89 99 50', 'Telefon: (0173) 3 57 70 49', 'Telefon: (06154) 5 89 99 49', 'Fax: (06154) 5 89 99 51']
mrh.bau@gmail.com;http://www.mrh-bau.de;MRH Baugesellschaft mbH;Geleitsstr. 46;63065;Offenbach;['Telefon: (069) 77 06 73 76', 'Telefon: (0173) 4 75 91 45']
m.daschek@t-online.de;No Website Found;Glück Karl;Löwenseestr. 12;63477;Maintal;['Telefon: (06109) 6 14 19', 'Fax: (06109) 6 76 36']
info@tbm-baudeko.de;http://www.tbm-baudeko.de;TBM Baudeko GmbH & CO. KG;Sprendlinger Landstr. 115;63069;Offenbach;['Telefon: (069) 84 84 39 70', 'Fax: (069) 84 84 39 87']
info@oundh-gmbh.de;No Website Found;O & H GmbH;Bismarckstr. 189;63067;Offenbach;['Telefon: (069) 21 02 89 50']
proinggmbh@gmail.com;No Website Found;PROING GmbH;Frankfurter Str. 57;63067;Offenbach;['Telefon: (069) 98 66 08 12']
info@aktivbau-gbr.de;http://www.aktivbau-gbr.de;Aktiv-Bau GbR;Austr. 17A;63619;Bad Orb;['Telefon: (06052) 80 17 49', 'Fax: (06052) 80 17 48']
info@dsk-gmbh.de;http://www.dsk-gmbh.de;DSK Deutsche Stadt- und Grundstücksentwicklungsges. mbH & Co.;Alt-Fechenheim 80;60386;Frankfurt-Fechenheim;['Telefon: (069) 40 89 37 35']
info@weider-massivbau.de;http://www.weider-massivbau.de;Weider Massivbau;Heckenweg 5;63303;Dreieich;['Telefon: (06103) 8 23 91', 'Fax: (06103) 8 10 48']
info@pavlovicbau.de;http://pavlovicbau.de;Frano Pavlovic Bau GmbH;Alt-Fechenheim 31;60386;Frankfurt-Fechenheim;['Telefon: (069) 40 80 96 49', 'Telefon: (0172) 1 79 73 33', 'Fax: (069) 40 80 96 48']
info@stadler-generalunternehmer.de;http://www.stadler-generalunternehmer.com;Stadler Interior Services GmbH;Ludwigstr. 182;63067;Offenbach;['Telefon: (069) 7 88 06 90']
kay.ditzel@ditzel-tiefbau.de;http://www.ditzel-tiefbau.de;Ditzel Kay;Herrnhaag 1;63654;Büdingen-Diebach;['Telefon: (06042) 95 01 15', 'Telefon: (0171) 7 25 85 59', 'Fax: (06042) 95 01 16']
kontakt@burg-kreativ.eu;http://www.burg-kreativ.de;B.U.R.G. Bau- und Raumgestaltungs GmbH;Langenbrombacher Str. 2;64720;Michelstadt-Rehbach;['Telefon: (06061) 9 79 85 59']
gk@kreppenhofer.de;http://www.kreppenhofer.de;Massivhaus Kreppenhofer GmbH & Co. KG - Kreppenhofer Bau GmbH;Main-Kinzig-Str. 40;63607;Wächtersbach;['Telefon: (06053) 70 75 60', 'Fax: (06053) 7 07 56 41']
frankfurt@a-porr.de;http://www.porr-ag.de;Porr Deutschland GmbH;Hanauer Landstr. 523;60386;Frankfurt-Fechenheim;['Telefon: (069) 9 04 31 80', 'Fax: (069) 90 43 18 10']
Adrias-Bau@t-online.de;No Website Found;ADRIAS-BAU GmbH;Offenbacher Landstr. 440A;60599;Frankfurt-Oberrad;['Telefon: (069) 2 74 04 83', 'Fax: (069) 27 40 48 49']
Sierra-Massivhaus@towncountry.de;http://www.Sierra-Massivhaus.de;Sierra Massivhaus GmbH & Co. KG;Frankfurter Str. 113;63303;Dreieich-Sprendlingen;['Telefon: (06103) 9 60 06 51', 'Fax: (06103) 9 60 06 52']
andbuettner@arcor.de;No Website Found;Büttner Bau GmbH;Dieburger Str. 63;63225;Langen;['Telefon: (06103) 70 68 60', 'Fax: (06103) 70 68 61']
info@parkett-heymann.de;http://www.muntermann.de;Muntermann Heinz Baugesellschaft MBH;Brunnenweg 8;64407;Fränkisch-Crumbach;['Telefon: (06164) 13 26', 'Fax: (06164) 23 22']
info@bickhardt-bau.de;http://www.bickhardt-bau.de;Bickhardt Bau Aktiengesellschaft;Dieselstr. 1;60314;Frankfurt-Ostend;['Telefon: (069) 40 89 57 90']
info@beilstein-bau.de;http://www.beilstein-bau.de;Beilstein Georg;Lindenstr. 8A;64405;Fischbachtal;['Telefon: (06166) 80 41']
info@kellerholding.com;http://www.KellerGrundbau.com;Keller Grundbau GmbH;Kaiserleistr. 8;63067;Offenbach-Kaiserlei;['Telefon: (069) 8 05 10', 'Fax: (069) 8 05 12 29']
Info@diamant-bohrtrenn.de;http://www.diamant-bohrtrenn.de;Diamant Bohr-Trenn GmbH;Dieselstr. 37;60314;Frankfurt-Ostend;['Telefon: (069) 42 69 72 56', 'Fax: (069) 42 69 72 68']
Sara-vertriebsgmbh@web.de;No Website Found;Sara-Vertriebs- und Bau GmbH;Strahlenbergerstr. 123;63067;Offenbach-Kaiserlei;['Telefon: (069) 85 09 54 97']
info@kleespies.de;http://www.kleespies.de;Kleespies GmbH & Co KG;Deutelbacher Str. 10;63637;Jossgrund-Oberndorf;['Telefon: (06059) 90 69 20', 'Telefon: (0172) 2 74 49 48', 'Fax: (06059) 9 06 92 50']
info@schaefer-massiv.de;http://www.schaefer-massiv.de;Schäfer - Massivhaus;Am Försterahl 20;63694;Limeshain-Rommelhausen;['Telefon: (06047) 95 53 64 11', 'Fax: (06047) 95 53 64 20']
info@westphal-gruppe.de;http://www.westphal-gruppe.de;Westphal GmbH & Co. KG;Rathenaustr. 21;63263;Neu-Isenburg;['Telefon: (06102) 29 80', 'Fax: (06102) 29 81 00']
info@kcs-brandschutz.com;http://www.kcs-brandschutz.com;K.C.S Brandschutz GmbH;Rathenaustr. 21;63263;Neu-Isenburg;['Telefon: (06102) 80 99 98', 'Fax: (06102) 80 99 97']
inf@telo-bau-gmbh.de;http://www.telo-bau-gmbh.de;Telo Hoch- & Tiefbau GmbH;Hahnenkammstr. 6;60388;Frankfurt-Bergen-Enkheim;['Telefon: (06109) 37 79 15', 'Fax: (06109) 37 79 16']
info@georg-weber-bau.de;No Website Found;Weber Georg  GmbH & Co. KG;Bahnhofstr. 50;64720;Michelstadt;['Telefon: (06061) 7 00 30', 'Fax: (06061) 70 03 50']
info@durabau.de;No Website Found;Dura Bau - Ihr Baupartner;Waldstr. 79;63263;Neu-Isenburg;['Telefon: 0177 2 33 23 72']
stellwagdi@aol.com;http://www.stellwag-bauen.de;Stellwag Dieter;Helmholtzstr. 6;64711;Erbach;['Telefon: (06061) 9 68 58 26', 'Telefon: (0171) 3 64 09 15', 'Fax: (06061) 9 68 58 27']
info@brunomarxgmbh.de;http://www.brunomarxgmbh.de;Bruno Marx GmbH;Waldstr. 33;64720;Michelstadt;['Telefon: (06061) 22 81', 'Fax: (06061) 7 34 81']
info@deutschmann-bauservice.de;http://www.deutschmann-bauservice.de;Deutschmann Bauservice GmbH;Bessemerstr. 17;60388;Frankfurt;['Telefon: (06109) 6 97 92 97', 'Telefon: (0178) 8 44 11 21', 'Fax: (06109) 6 97 92 98']
pbender50@aol.com;http://www.niederdorfelden.heinzvonheiden.de;Heinz von Heiden GmbH;Hanauer Str. 10;61138;Niederdorfelden;['Telefon: (06101) 6 55 99 45']
info@thuemmler-spezialbau.de;http://www.thuemmler-spezialbau.de;Thuemmler Spezialbau UG;Kilianstädter Str. 44;61137;Schöneck;['Telefon: (06187) 95 20 30', 'Telefon: (0172) 6 53 72 21', 'Fax: (06187) 9 36 70 98']
info@leinberger-bau.de;http://www.leinberger-bau.com;Leinberger Bau GmbH;Orleshäuser Str. 30;63654;Büdingen;['Telefon: (06042) 95 68 40', 'Fax: (06042) 95 68 41 33']
lang.joachim@t-online.de;No Website Found;Lang Joachim Hoch- u. Tiefbau GmbH;Friedhofstr. 48;64720;Michelstadt;['Telefon: (06061) 30 23', 'Fax: (06061) 1 21 35']
buero@fassbinder-bau.de;http://www.fassbinder-bau.de;Faßbinder GmbH;Birkenstr. 9;63654;Büdingen;['Telefon: (06042) 26 12', 'Fax: (06042) 6 93 53']
info@baresel.de;http://www.baresel.de;Baresel  GmbH;Dornhofstr. 44-46;63263;Neu-Isenburg;['Telefon: (06102) 59 93 50', 'Fax: (06102) 5 99 35 50']
info@johann-wagner-gmbh.de;http://www.johann-wagner-gmbh.de;Johann Wagner GmbH;Lindleystr. 4;60314;Frankfurt-Ostend;['Telefon: (069) 90 43 67 70']
info@krausse-bauunternehmen.de;http://www.krausse-bauunternehmen.de;Krauße;Neue Str. 13;63607;Wächtersbach;['Telefon: (06053) 18 53', 'Telefon: (0177) 8 53 01 31', 'Fax: (06053) 7 03 22']
info@wf-ib.de;http://www.wf-ingbau.de;Wayss & Freytag Ing.-Bau AG;Flinschstr. 20;60388;Frankfurt-Seckbach;['Telefon: (069) 94 74 15 80', 'Fax: (069) 9 47 41 58 20']
info@weinrich-bau.de;No Website Found;Weinrich Bauunternehmen GmbH;Am Weißen Turm 24;60388;Frankfurt;['Telefon: (06109) 2 24 12', 'Fax: (06109) 2 37 64']
info@dialogbau.de;http://www.dialogbau.de;Dialogbau GmbH;Dahlmannstr. 59;60385;Frankfurt-Ostend;['Telefon: (069) 43 00 89 65']
c.s.baudekoration@hotmail.de;No Website Found;C.S. Baudekoration GmbH;Offenbacher Landstr. 80;60599;Frankfurt-Sachsenhausen-Süd;['Telefon: (069) 61 99 34 43']
info@bauunternehmen-hamm.de;http://www.bauunternehmen-hamm.de;Hamm Nikolai;Grätz-Markersdorfer-Str. 21;64720;Michelstadt;['Telefon: (06061) 7 25 82', 'Telefon: (0170) 3 55 89 25', 'Fax: (06061) 96 97 09']
info@kretschmann-bau.de;http://www.kretschmann-bau.de;Kretschmann Ulrich;Dianastr. 28;64291;Darmstadt;['Telefon: (06151) 37 35 06', 'Telefon: (0171) 2 80 10 16', 'Fax: (06151) 37 35 51']
wenzelbaugmbh@t-online.de;http://www.wenzel-hoch-tiefbau.de;Wenzel Baugesellschaft mbH;Sudetenstr. 14;63654;Büdingen;['Telefon: (06042) 28 55']
kontakt@mars-gmbh.com;http://www.mars-gmbh.com;Mars Bau & Handels GmbH;Schillerstr. 63;63329;Egelsbach;['Telefon: (06103) 94 73 61', 'Fax: (06103) 94 73 60']
dreieich@stahlverbundbau.de;http://www.stahlverbundbau.de;Stahl & Verbundbau Gesellsch. für Industrielles Bauen mbH;Im Steingrund 8;63303;Dreieich;['Telefon: (06103) 9 86 20', 'Fax: (06103) 98 62 44']
jb-bau@jbratengeier.de;http://www.jbratengeier.de;Jean Bratengeier Bau-GmbH;Im Steingrund 6;63303;Dreieich-Buchschlag;['Telefon: (06103) 83 35 90', 'Fax: (06103) 8 33 59 51']
ligbau@ligbau.de;http://www.ligbau.de;LIG Bau GmbH;Pittlerstr. 47;63225;Langen;['Telefon: (06103) 8 33 28 00']
jweichsel@leonhard-weiss.de;http://www.leonhard-weiss.de;Leonhard Weiss GmbH & Co. KG;Amperestr. 1;63225;Langen;['Telefon: (06103) 30 12 70']
info@kl-schmidt.de;http://www.kl-schmidt.de;"K.L.Schmidt Consulting&Projektbau; AG";Tucholskystr. 20;60598;Frankfurt-Sachsenhausen;['Telefon: (069) 97 69 21 60']
info@hoch3-bau.de;http://www.hoch3-bau.de;Hoch 3;Habsburgerallee 37;60385;Frankfurt-Ostend;['Telefon: (069) 40 56 22 50', 'Fax: (069) 40 56 22 48']
tsm4376@gmail.com;No Website Found;Spasojevic Milomir;Mörfelder Landstr. 30;60598;Frankfurt-Sachsenhausen;['Telefon: 0157 87 87 68 88']
info.schmidt.th@t-online.de;http://www.thomasschmidt-und-co.de;Thomas Schmidt & Co Gmbh;Dreieichstr. 42;60594;Frankfurt-Sachsenhausen;['Telefon: (069) 97 60 95 28', 'Fax: (069) 97 60 95 23']
info@wandundform.de;http://wandundform.de;Wand & Form;Friedberger Str. 46;61130;Nidderau-Heldenbergen;['Telefon: (06187) 6 05 44 40']
martin.koenig@quality-work.de;http://www.quality-work.de;Quality Work;Albrechtstr. 1;64291;Darmstadt;['Telefon: 0174 1 90 97 79']
info@fmabau.de;http://www.fmabau.de;f.m.a. bau GmbH;Waldschmidtstr. 19;60316;Frankfurt-Ostend;['Telefon: (069) 90 43 03 61', 'Fax: (069) 90 43 03 62']
m.mader@mmbau.com;http://www.mmbau.com;MM Bau + Hausservice GmbH;Stegstr. 52;60594;Frankfurt-Sachsenhausen;['Telefon: (069) 96 20 29 87', 'Telefon: (0177) 6 23 72 99', 'Fax: (069) 96 20 29 88']
info@lotz-bauen.de;http://www.lotz-bauen.de;Lotz A. Hoch- und Tiefbau GmbH;Philipp-Reis-Str. 6;61130;Nidderau;['Telefon: (06187) 9 22 60', 'Fax: (06187) 92 26 26']
info@firma-bojcic.de;http://www.firma-bojcic.de;Bojcic Roman;Leibnizstr. 26;60316;Frankfurt-Nordend-Ost;['Telefon: 0177 6 11 07 93']
kontakt@bau-henrich.de;http://www.bau-henrich.de;Henrich Georg GmbH & Co KG;Soderstr. 84;64287;Darmstadt-Ost;['Telefon: (06151) 4 67 10']
info@stellwagbau.de;http://www.stellwagbau.de;Stellwag Klaus;Werner-von-Siemens-Str. 34;64711;Erbach;['Telefon: (06062) 34 00', 'Telefon: (0171) 1 75 12 69', 'Fax: (06062) 16 45']
bad-vilbel@dig-immobilien.de;http://www.dig-immobilien.de;DIG- Haus Vertriebs GmbH;Ludwig-Erhard-Str. 15;61118;Bad Vilbel;['Telefon: (06101) 9 87 56 94', 'Fax: (06101) 9 87 56 96']
dietz69@web.de;No Website Found;MD-Bau;Weinstr. 24;63628;Bad Soden-Salmünster;['Telefon: (06056) 51 56', 'Telefon: (0151) 11 22 16 34']
info@nesmirbau.de;http://www.nesmirbau.de;Nes-Mir Bau GmbH;Röntgenstr. 76;64291;Darmstadt;['Telefon: (06151) 6 60 43 70', 'Fax: (06051) 6 60 43 74']
info@saul-bau.de;http://www.saul-bau.de;Saul Bau GmbH;Heinrich-Heine-Str. 14;64711;Erbach;['Telefon: (06062) 35 54']
info@viebrockhaus.de;http:///www.viebrockhaus.de;Viebrock Andreas GmbH;Sandgasse 2;60311;Frankfurt-Innenstadt;['Telefon: 0800  8 99 98 99']
info@lundr-bauunternehmen.de;http://www.lundr-bauunternehmen.de;"L&R; Betriebs GmbH";Ritterstr. 29a;61118;Bad Vilbel;['Fax: (06101) 5 58 56 56', 'Telefon: (0174) 3 76 75 01']
info@bonnet-bau.de;http://www.bonnet-bau.de;Bonnet Bauausführungen GmbH & Co KG Alfred;Windmühlstr. 3;60329;Frankfurt-Bahnhofsviertel;['Telefon: (069) 2 38 50 50', 'Fax: (069) 23 85 05 10']
info@seidl-partner.de;http://www.seidl-partner.de;Seidl & Partner GmbH;Eschersheimer Landstr. 10;60322;Frankfurt-Innenstadt;['Telefon: (069) 92 88 58 50']
info@implus-gmbh.de;http://www.implus-gmbh.de;Implus D. Az. GmbH;Münchener Str. 12;60329;Frankfurt-Bahnhofsviertel;['Telefon: (069) 25 62 29 42']
hermannschumacher@gmx.de;http://www.holzlandjung.de;Schumacher Hermann;Beckstr. 53;64287;Darmstadt;['Telefon: (06151) 4 64 01']
frankfurt@gagro.de;http://www.gagro.de;Gassmann + Grossmann Baumanagement GmbH;Gutleutstr. 75;60329;Frankfurt-Bahnhofsviertel;['Telefon: (069) 2 98 02 88 70', 'Fax: (069) 29 80 28 87 46']
da-nl@dressler-bau.de;http://www.dressler-bau.de;Dreßler Bau GmbH;Adelungstr. 30;64283;Darmstadt;['Telefon: (06151) 2 90 20', 'Fax: (06151) 29 02 11']
info@roberbau.de;http://www.roberbau.de;Rober Bau GmbH;Adelungstr. 32;64283;Darmstadt-Mitte;['Telefon: (06151) 8 60 98 80', 'Fax: (06151) 8 60 98 82']
info@kbs-baumann.de;http://www.kbs-baumann.de;KBS Karl Baumann & Sohn GmbH;Vor der Au 30;63674;Altenstadt;['Telefon: (06047) 3 58', 'Fax: (06047) 57 49']
info@baumehr.de;http://www.baumehr.de;baumehr;Sandstr. 32;64283;Darmstadt-Mitte;['Telefon: 0179 9 40 91 08']
info@strassing.de;http://www.strassing-limes.de;Strassing-Limes GmbH;Am Galgenbach 3;63628;Bad Soden-Salmünster;['Telefon: (06056) 7 30 90', 'Fax: (06056) 73 09 45']
info@bau-kraft.eu;http://www.alp.eu;BAU-KRAFT Baugesellschaft mbH;Niedenau 41;60325;Frankfurt-Westend-Süd;['Telefon: (069) 5 09 29 34 00']
info@hochtief.de;http://www.hochtief-projectdevelopment.com;Hochtief Projektentwicklung GmbH;Bockenheimer Landstr. 24;60323;Frankfurt-Westend-Süd;['Telefon: (069) 2 57 53 50', 'Fax: (069) 25 75 35 77']
markusrose@rosebau.de;http://www.rosebau.de;Rose Markus;Ludwigshöhstr. 71;64285;Darmstadt;['Telefon: (06151) 6 19 06', 'Fax: (06151) 6 19 07']
asitbaugmbh@gmail.com;No Website Found;Asit Bau GmbH;Eschollbrücker Str. 5A;64283;Darmstadt;['Telefon: (06151) 1 30 53 47', 'Telefon: (0173) 6 72 84 46', 'Fax: (06151) 1 30 53 48']
info@alea-ag.de;http://www.alea-ag.de;ALEA Hoch- und Industriebau AG;Im Rosengarten 25a;61118;Bad Vilbel;['Telefon: (06101) 4 09 20', 'Fax: (06101) 40 92 32']
post@abg-fh.de;http://www.abg-fh.de;ABG FRANKFURT HOLDING Wohnungsbau- und Beteiligungsgesellschaft mbH;Niddastr. 107;60329;Frankfurt-Gallus;['Telefon: (069) 2 60 80', 'Fax: (069) 2 60 82 77']
info@schuett-gruppe.de;http://www.schuett-bauwerke.de;Schütt Bauwerke GmbH;Friedrichstr. 15;60323;Frankfurt-Westend-Süd;['Telefon: (069) 71 71 28 50']
info@kiz-group.com;http://www.kiz-bau.de;KIZ GmbH,;Hegelstr. 8;63628;Bad Soden-Salmünster;['Telefon: (06056) 86 67', 'Fax: (06056) 20 04']
info@oekobau-nagel.de;http://www.oekobau-nagel.de;Nagel Oliver;Siegfriedstr. 23;64385;Reichelsheim;['Telefon: (06164) 50 01 05']
batbau@hotmail.de;No Website Found;B-A-T Bau;Heidelberger Str. 141;64285;Darmstadt-Bessungen;['Telefon: 0157 85 04 66 68']
info@o-winkler.de;http://www.o-winkler.de;Winkler GmbH, O.;Kurzer Weg 10;64285;Darmstadt;['Telefon: (06151) 5 10 44', 'Fax: (06151) 5 15 67']
resul.rhein@gmx.de;No Website Found;Rhein Bauunternehmen GmbH;Mainzer Str. 83;64293;Darmstadt-Nord;['Telefon: (06151) 9 06 77 20', 'Telefon: (0171) 8 88 03 13', 'Fax: (06151) 9 06 77 21']
info@be-bau-gmbh.de;http://www.Be-Bau-GmbH.de;B.E. Bau GmbH;Melibocusstr. 27;60528;Frankfurt-Niederrad;['Telefon: (069) 20 16 65 39', 'Telefon: (0174) 5 22 11 11']
frankfurt@takenaka.de;http://www.takenaka.de;TAKENAKA EUROPE GmbH;Friedrich-Ebert-Anlage 56;60325;Frankfurt-Westend-Süd;['Telefon: (069) 9 74 04 20', 'Fax: (069) 74 55 96']
info@lithonplus.de;http://www.lithonplus-steinmanufaktur.de;Lithonplus GmbH & Co. KG;Sehringstr. 1;63225;Langen;['Telefon: (069) 6 97 90 10', 'Fax: (069) 69 79 01 40']
frankfurt@r-ug.de;http://www.reinhardunternehmensgruppe.de;Reinhard Unternehmensgruppe;Bockenheimer Landstr. 97;60325;Frankfurt-Westend-Süd;['Telefon: (069) 76 75 81 70', 'Fax: (069) 76 75 81 71']
trippbau@yahoo.de;http://www.tripp-bau.com;W.Tripp GmbH;Theodor-Heuss-Str. 40;61118;Bad Vilbel-Dortelweil;['Telefon: (06101) 9 86 45 83', 'Fax: (06101) 9 87 57 24']
info@koehlerhtw.de;http://www.koehlerhtw.de;Köhler Hoch-, Tief- und Wasserbau GmbH;Niederbornstr. 42;60437;Frankfurt-Eckenheim;['Telefon: (069) 54 95 06', 'Fax: (069) 54 26 20']
info@dehner-bau.de;http://www.dehner-bau.de;Dehner Bau GmbH;Friedberger Str. 191;61118;Bad Vilbel;['Telefon: (06101) 65 59 10']
info@weiss-bau-sanierung.de;http://www.weiss-bau-sanierung.de;Weiss Bau und Sanierung UG;Max-Planck-Str. 27;61184;Karben-Klein-Karben;['Telefon: (06039) 2 09 01 91', 'Telefon: (0157) 85 09 56 65']
info@muebau.de;http://www.muebau.de;Münchener Baugesellschaft GmbH;Herriotstr. 5;60528;Frankfurt-Schwanheim;['Telefon: (069) 9 72 08 00']
info@freyler.de;http://www.freyler.de;Freyler Industriebau GmbH;Robert-Bosch-Str. 13;64293;Darmstadt-Nord;['Telefon: (06151) 8 00 21 20']
info-solutions@hochtief.de;http://www.hochtief-construction.de;HOCHTIEF Solutions AG;Lyonerstr. 25;60528;Frankfurt-Niederrad;['Telefon: (069) 7 11 70', 'Fax: (069) 71 17 25 95']
dir-sb-rhein-main@strabag.com;http://www.strabag.de;STRABAG AG;Robert-Bosch-Str. 20;64293;Darmstadt;['Telefon: (06151) 3 30 30']
info@max-boegl.de;http://www.max-boegl.de;Bögl Max;Lyoner Str. 14;60528;Frankfurt-Schwanheim;['Telefon: (069) 6 53 08 90', 'Fax: (069) 65 30 89 48']
info@deutsche-bm.de;http://www.deutsche-bm.de;Deutsche Baumanagement GmbH;Rhonestr. 7;60528;Frankfurt-Schwanheim;['Telefon: (069) 71 17 27 27', 'Fax: (069) 71 17 27 30']
info@art-bau-gmbh.com;http://www.art-bau-gmbh.com;ART Bau GmbH;Berkersheimer Untergasse 3;60435;Frankfurt-Berkersheim;['Telefon: (069) 69 59 60 51']
ffm@bommhardt.de;http://www.bommhardt.de;Bommhardt Gebrüder Bauunternehmen GmbH & Co. KG;Klaus-Groth-Str. 46;60320;Frankfurt-Dornbusch;['Telefon: (069) 9 51 44 50', 'Fax: (069) 52 98 03']
kontakt@koelske.biz;http://www.altbausanierung-koelske.de;Kölske Michael;Kölner Str. 10;64293;Darmstadt;['Fax: (06151) 31 40 42', 'Telefon: (0171) 5 24 98 35']
info@industria-gmbh.de;http://www.industria-gmbh.de;Industria Bau- und Vermietungsgesellschaft;Theodor-Heuss-Allee 74;60486;Frankfurt-Bockenheim;['Telefon: (069) 83 83 98 77', 'Telefon: 0800  8 38 31 11', 'Fax: (069) 83 77 99']
baugeschaeftheuser@t-online.de;No Website Found;Heuser Hans;Alt Allertshofen 18;64397;Modautal;['Telefon: (06167) 70 03', 'Fax: (06167) 76 29']
suditubau@gmail.com;http://www.suditubau.de;Suditubau;Pulverhäuserweg 83;64295;Darmstadt-West;['Telefon: 0176 26 65 69 52']
t.sievers@gomoll-ffm.de;No Website Found;Gomoll Herbert & Co. GmbH;Urnbergweg 8;60437;Frankfurt-Harheim;['Telefon: (06101) 4 04 04', 'Fax: (06101) 54 43 99']
info@deltabau-ffm.de;http://www.deltabau-ffm.de;DeltaBau GmbH;Berkersheimer Weg 171B;60433;Frankfurt-Eckenheim;['Telefon: (069) 26 95 65 95', 'Fax: (069) 26 95 65 96']
cezanne@cewobau.de;http://www.cewobau.de;Cezanne Wohnungsbau GmbH;Kornblumenweg 10;64546;Mörfelden-Walldorf;['Telefon: (06105) 95 16 81']
info@arotec-bau.de;http://www.arotec-bau.de;AROTEC BAU GmbH;Am Hochwehr 5;60431;Frankfurt-Ginnheim;['Telefon: (069) 58 60 95 48', 'Fax: (069) 58 60 95 49']
info-solutions@hochtief.de;http://www.hochtief-solutions.de;HOCHTIEF Solutions AG;Zur Waldau 21;60529;Frankfurt-Schwanheim;['Telefon: (069) 96 23 72 89']
klinggmbh@t-online.de;http://www.domotec-karben.de;Domotec Hoch- u. Tiefbau GmbH;Robert-Bosch-Str. 66;61184;Karben-Kloppenheim;['Telefon: (06039) 80 04 40', 'Fax: (06039) 80 04 41']
info@permont.de;http://www.permont.de;PerMont Bau GmbH;Nordendstr. 82-84;64546;Mörfelden-Walldorf;['Telefon: (06105) 2 73 40', 'Fax: (06105) 27 34 16']
info@gateway-gardens.de;http://www.gateway-gardens.de;G & O Gateway Gardens;Flughafen Frankfurt am Main 612;60549;Frankfurt-Flughafen;['Telefon: (069) 79 58 38 40']
info@kuehnhackl-bau.de;http://www.kuehnhackl-bau.de;Kühnhackl Bau GmbH;Eichrain 2;63636;Brachttal;['Telefon: (06054) 23 50']
kolic.bau.gmbh@googlemail.com;No Website Found;Kolic Bau GmbH;Dreieichstr. 7B;64546;Mörfelden-Walldorf;['Telefon: (06105) 2 75 96 07']
miroslavsic-wohnbau@t-online.de;No Website Found;Sic Miroslav;Lochmühlstr. 4b;60437;Frankfurt-Nieder-Erlenbach;['Telefon: (06101) 40 63 65']
info@hochtief.de;http://www.hochtief.de;HOCHTIEF Solutions AG 1;Farmstr. 101;64546;Mörfelden-Walldorf;['Telefon: (06105) 7 69 03']
info@walldorfer-wohnbau.de;http://www.walldorferwohnbau.de;Walldorfer Wohnbau GmbH;Farmstr. 101;64546;Mörfelden-Walldorf;['Telefon: (06105) 96 69 70', 'Telefon: (06105) 9 66 97 20']
info@fs-sternbau.com;http://www.fs-sternbau.com;FS Stern Bau GmbH;Hessenring 4D;64546;Mörfelden-Walldorf;['Telefon: (06105) 7 17 33 20']
guenther.guntrum@t-online.de;No Website Found;Günther & Guntrum GmbH;Fasanenhof ;61184;Karben;['Telefon: (06039) 93 40 90', 'Fax: (06039) 93 40 99']
information@joest-bau.de;http://www.Joest-bau.de;Jöst Bauunternehmen GmbH;Rödelheimer Landstr. 41;60487;Frankfurt-Bockenheim;['Telefon: (069) 9 70 50 60', 'Fax: (069) 7 07 34 95']
info@franz-bau.de;http://www.franz-bau.de;Franz-Bau GmbH;Erlenweg 5D;63628;Bad Soden-Salmünster-Wahlert;['Telefon: (06056) 84 94', 'Fax: (06056) 22 16']
info@wohn-projekt-bau.de;http://www.wohn-projekt-bau.de;Wohn-Projekt-Bau GmbH;Modaustr. 21;64686;Lautertal;['Telefon: (06254) 95 08 00', 'Fax: (06254) 32 69']
ackermanngarthe@gmx.de;http://www.heinrichackermann-bau.de;Ackermann Heinrich GmbH & Co KG;Alte Falterstr. 23;65933;Frankfurt-Griesheim;['Telefon: (069) 3 80 36 60', 'Fax: (069) 3 90 44 28']
info@x-fact.eu;http://www.x-fact.eu;X-Fact GmbH;Bäckerweg 18;64546;Mörfelden-Walldorf;['Telefon: (06105) 95 19 43', 'Telefon: (0163) 1 85 70 37']
info@walldorfer.wohnbau.de;http://www.walldorfer-wohnbau.de;Walldorfer Wohnbau GmbH;Waldstr. 23;64546;Mörfelden-Walldorf;['Telefon: (06105) 2 44 44', 'Fax: (06105) 2 50 60']
info@bauunternehmen-janneck.de;http://www.bauunternehmen-janneck.de;Janneck;Am Wildzaun 24;64546;Mörfelden-Walldorf;['Telefon: (06105) 3 07 32 75']
voelkerbau@t-online.de;http://www.voelker-bau.com;Voelker Bau GmbH;Rödelheimer Landstr. 75-85;60487;Frankfurt-Bockenheim;['Telefon: (069) 70 73 06 36', 'Fax: (069) 70 73 06 37']
klm@gmx.info;http://www.klm-bau.de;KLM Bau und Sanierungs GmbH;Rödelheimer Landstr. 75-85;60487;Frankfurt-Bockenheim;['Telefon: (069) 71 91 81 11', 'Fax: (069) 71 67 58 69']
info@schnell-hochbau.de;http://www.schnell-hochbau.de;Schnell Hochbau GmbH;Rödelheimer Landstr. 75-85;60487;Frankfurt-Bockenheim;['Telefon: (069) 36 70 79 36']
info@injektec.de;http://www.injektec.de;Injektec Bauwerksabdichtung UG;Friedrich-Ebert-Str. 57;64331;Weiterstadt;['Telefon: (06150) 1 70 49 60', 'Fax: (06150) 1 70 49 61']
baugeschaeft.essinger@t-online.de;No Website Found;Essinger Baugeschäft GmbH;In den Heidenäckern 4;64686;Lautertal;['Telefon: (06254) 73 46', 'Fax: (06254) 20 72']
udo-kleinschmidt@t-online.de;No Website Found;Kleinschmidt Udo;Talstr. 1;63699;Kefenrod;['Telefon: (06054) 59 99']
info@bau-rabeneck.de;http://www.bau-rabeneck.de;Rabeneck Jochen;Schenkenbergstr. 11;64678;Lindenfels;['Telefon: (06255) 96 85 58']
info@sonnenschutz-metalbau-noetzold.de;http://www.sonnenschutz-metallbau-noetzold.de;Rannow Günter;Dieselstr. 28;64546;Mörfelden-Walldorf;['Telefon: (06105) 92 32 45', 'Fax: (06105) 92 32 47']
info@depenbrock.de;http://www.depenbrock.de;Depenbrock Bau GmbH & Co. KG;Cargo City Süd 556B;60549;Frankfurt-Flughafen;['Telefon: (069) 69 76 96 60']
info@chemobudowa.net;http://www.chemobudowa.net;Chembudowa Krakow AG;Im Vogelsgesang 1a;60488;Frankfurt-Hausen;['Telefon: (069) 7 95 00 70', 'Fax: (069) 79 50 07 21']
daew_gabroa@yahoo.com;No Website Found;Dau Gabriel;Hessestr. 24;60439;Frankfurt-Heddernheim;['Telefon: 01590 1 05 21 02']
info@josef-kipp.de;http://www.josef-kipp.de;Kipp Josef GmbH;Stroofstr. 27;65933;Frankfurt-Griesheim;['Telefon: (069) 38 30 00', 'Fax: (069) 38 99 83 72']
info@hirler.de;http://www.hirler.de;Hirler GmbH Spezialbauunternehmen;Am Berg 7a;64546;Mörfelden-Walldorf;['Telefon: (06105) 9 10 40']
info@ip-bauunternehmen.de;No Website Found;IPA Bau GmbH;Rubensstr. 21-27;64546;Mörfelden-Walldorf;['Telefon: (06105) 7 03 79 47']
omerovic@dehabau.de;http://www.dehabau.de;DEHABAU;Im Dürren Kopf 28;64347;Griesheim;['Telefon: (06155) 8 49 10 88', 'Fax: (06155) 8 49 12 20']
info@goldbeck.de;http://www.goldbeck.de;GOLDBECK Süd GmbH GSB Frankfurt/Main;Olof-Palme-Str. 17;60439;Frankfurt-Heddernheim;['Telefon: (069) 9 50 90 30', 'Fax: (069) 95 09 03 15']
info@goldbeck.de;http://www.goldbeck.de;GOLDBECK Süd GmbH;Olof-Palme-Str. 17;60439;Frankfurt-Heddernheim;['Telefon: (069) 95 11 76 90']
ante@stand-bau.ocm;http://www.stand-bau-gmbh.de;Stand Bau GmbH;Wilhelm-Kobelt-Str. 29;60529;Frankfurt-Schwanheim;['Telefon: (069) 96 12 19 95']
info@kabacon.de;http://www.kabacon.de;KaBaCon GmbH & Co. KG;Georgenstr. 20;64331;Weiterstadt-Braunshardt;['Telefon: (06150) 9 79 90 83', 'Fax: (06150) 9 79 90 84']
bauunternehmen-chwalisz@hotmail.de;http://www.bauunternehmen-chwalisz.npage.de;Chwalisz;Cranachstr. 3;64546;Mörfelden-Walldorf;['Telefon: 0152 13 76 10 56']
info@projektbaugmbh.de;http://www.projektbaugmbh.de;Projekt Bau GmbH;In der Grobach 6;61197;Florstadt;['Telefon: (06041) 82 37 62', 'Fax: (06041) 82 37 63']
info@krakbau.com;http://www.krakbau.com.pl;Krakbau Sp.z.o.o.;Westerbachstr. 37-43;60489;Frankfurt-Rödelheim;['Telefon: (069) 2 56 16 60', 'Fax: (069) 25 61 66 79']
jakob_bitsch@gmx.de;No Website Found;Jakob + Bitsch GmbH;Erbacher Str. 113;64658;Fürth-Krumbach;['Telefon: (06253) 55 68', 'Fax: (06253) 45 03']
parkstadt@ps-bgl.de;http://www.parkstadt-riedberg.de;"PS Baugesellschaft ""Gut Lewitz"" GmbH";Zur Kalbacher Höhe 8;60439;Frankfurt-Kalbach-Riedberg;['Telefon: (069) 9 51 19 80', 'Fax: (069) 95 11 98 25']
email@montebau.de;http://www.montebau.de;Monte - Bau GmbH;Berner Str. 62-64;60437;Frankfurt-Nieder-Eschbach;['Telefon: (069) 90 50 96 75', 'Fax: (069) 90 50 96 74']
bauunternehmen-krieg@hotmail.de;http://bauunternehmen-krieg.de;Krieg Jürgen;Außenliegend 3;63683;Ortenberg;['Telefon: (06046) 95 47 65']
info@schaefer-bau-gmbh.de;http://www.schaefer-bau-gmbh.de;Hubertus Schäfer GmbH;Berner Str. 77;60437;Frankfurt-Nieder-Eschbach;['Telefon: (069) 9 50 21 06 50', 'Fax: (069) 95 02 10 65 18']
c.g.bau@hotmail.de;http://cg-bau-pfungstadt.kbalgan.com;C.G.Bau;Büchnerweg 35;64319;Pfungstadt;['Telefon: (06157) 94 96 18']
info@bamppp.com;http://www.bamppp.com;BAM PPP Deutschland GmbH;Am Seedamm 44;60489;Frankfurt-Rödelheim;['Telefon: (069) 7 40 93 00', 'Fax: (069) 74 09 30 30']
info@borgner-bau.de;http://www.borgner-bau.de;Borgner GmbH, Willi;Karl-Hofmann-Str. 5;63683;Ortenberg;['Telefon: (06046) 36 08', 'Telefon: (0151) 11 67 18 72', 'Fax: (06046) 31 55']
g.simic@fbmfrankfurt.de;http://www.fbmfrankfurt.de;FBM FrankfurterBauManagement GmbH;Berner Str. 97;60437;Frankfurt-Nieder-Eschbach;['Telefon: (069) 50 70 16 60', 'Fax: (069) 95 09 16 80']
info@fbmfrankfurt.de;http://www.fbmfrankfurt.de;Fbm Frankfurterbaumanagement;Berner Str. 97;60437;Frankfurt-Nieder-Eschbach;['Telefon: (069) 17 51 45 01', 'Telefon: (0176) 66 65 19 22']
info@mki-bau.de;http://www.mki-bau.de;MKI Bauunternehmen und Bauträger GmbH;Königsberger Str. 24;64342;Seeheim-Jugenheim;['Telefon: (06257) 88 18', 'Telefon: (0170) 1 64 94 72', 'Fax: (06257) 8 49 87']
info@wf-ib.de;http://www.wf-ingbau.de;Wayss & Freytag Ingenieurbau AG;Eschborner Landstr. 132;60489;Frankfurt-Rödelheim;['Telefon: (069) 7 92 90', 'Fax: (069) 7 92 91 22']
email@focus-bau.de;http://www.focus-bau.de;Focus Bau GmbH;Wilhelm-Hammann-Str. 17;64572;Büttelborn-Worfelden;['Telefon: (06152) 8 05 94 00']
info@bauen-fuer-griesheim.de;http://www.bauen-fuer-griesheim.de;Bauen für Griesheim AG;Eichendorffstr. 44;64347;Griesheim;['Telefon: (06155) 6 08 31 85', 'Fax: (06155) 6 08 31 86']
info@wf-ib.de;http://www.bam-services.de;Wayss & Freytag Ingenieurbau AG;Westerbachstr. 110;65936;Frankfurt-Sossenheim;['Telefon: (069) 74 22 60', 'Fax: (069) 74 22 61 00']
info@krieger-schramm.de;http://www.krieger-schramm.de;Krieger und Schramm GmbH & Co KG;Altenhöferallee 68;60438;Frankfurt-Kalbach-Riedberg;['Telefon: (069) 92 10 18 10']
horle-gmbh@t-online.de;http://www.horle-gmbh.de;HORLE GmbH;Hiltersklinger Weg 7;64689;Grasellenbach-Hammelbach;['Telefon: (06253) 16 45', 'Telefon: (0171) 9 94 99 39', 'Fax: (06253) 2 18 06']
info@bauerundsohn.de;http://www.bauerundsohn.de;Bauer u. Sohn;Weschnitzer Str. 46;64689;Grasellenbach;['Telefon: (06253) 93 21 56', 'Fax: (06253) 93 21 57']
rossberg.friedberg@t-online.de;No Website Found;Bauunternehmung Rossberg GmbH;Biengartenweg 20;61194;Niddatal;['Telefon: (06034) 23 61', 'Telefon: (0162) 9 81 58 64', 'Fax: (06034) 80 67']
info@construction-frankfurt.de;http://www.construction-frankfurt.de;Construction-Frankfurt;Weißkirchener Weg 87;60439;Frankfurt-Niederursel;['Telefon: (069) 57 00 06 61', 'Fax: (069) 57 00 06 62']
info@langlitz-bau.de;http://www.langlitz-bau.de;Langlitz Bau GmbH;Am Kalkofen 8;61206;Wöllstadt;['Telefon: (06034) 24 01']
michelvogt@gmx.de;No Website Found;Vogt Siegfried;Hofmannstr. 24;64347;Griesheim;['Telefon: (06155) 76 05 83', 'Fax: (06155) 7 75 02']
zentrale@alpina-bau.de;http://www.alpina-bau.de;Alpina-Bau GmbH;Hans-Karl-Platz Am Markt 1;64347;Griesheim;['Telefon: (06155) 70 00 30', 'Fax: (06155) 70 00 40']
hill.gunnar@t-online.de;No Website Found;Hill Gunnar;Ludwigstr. 4;64342;Seeheim-Jugenheim;['Telefon: (06257) 6 95 21', 'Telefon: (0171) 4 43 83 30', 'Fax: (06257) 6 95 22']
brs-baudienstleistungen@web.de;No Website Found;BRS Baudienstleistungen;Ringstr. 21;63691;Ranstadt;['Telefon: (06041) 9 62 55 76', 'Fax: (06041) 9 68 78 20']
info@kwg-bau.de;http://www.kwg-bau.de;Kumpf  Wohn- u. Gewerbebau GmbH & Co. KG;Hahlgartenstr. 67;64347;Griesheim;['Telefon: (06155) 83 05 51']
kontakt@sahle.de;http://www.sahle-online.de;Ihr Haus Sahle Massivbau GmbH;Henning-von-Tresckow-Str. 20;60438;Frankfurt-Kalbach-Riedberg;['Telefon: (069) 25 61 67 45']
info@kreutner-massivbau.de;http://www.kreutner-massivbau.de;Kreutner Massivbau GmbH;Erbacher Str. 85;64743;Beerfelden-Hetzbach;['Telefon: (06068) 14 81', 'Fax: (06068) 44 62']
info@meyer-bau-gmbh.de;http://www.meyer-bau-gmbh.de;Meyer H. Bau-GmbH;Konrad-Adenauer-Str. 1;64347;Griesheim;['Telefon: (06155) 8 78 67 20', 'Fax: (06155) 66 51 78']
info@markgraf-bau.de;http://www.markgraf-bau.de;W. Markgraf GmbH & Co. KG;Düsseldorfer Str. 13;65760;Eschborn;['Telefon: (06196) 7 75 66 68']
info@die-bauengel.de;http://www.die-bauengel.de;Bauengel UG;Am Seegraben 1a;64572;Büttelborn-Klein-Gerau;['Telefon: (06152) 6 69 75 54']
jbrum@t-online.de;No Website Found;Brum Johann Bauunternehmung GmbH;Michaelstr. 59;65936;Frankfurt;['Telefon: (069) 34 15 50', 'Fax: (069) 34 27 35']
spalt-baut@t-online.de;No Website Found;Spalt GmbH Klaus;Carl-Benz-Str. 10;64658;Fürth;['Telefon: (06253) 55 29']
info@virit-bau.de;http://www.virit-bau.de;Virit Baumanagement GmbH;Kurmainzer Str. 45;65929;Frankfurt-Höchst;['Telefon: (069) 37 56 40 55']
Idrismemis@hotmail.de;No Website Found;Müller;Schwarzwaldweg 51;65760;Eschborn;['Telefon: 0179 6 80 67 60']
info@vukovicgmbh.de;http://www.vukovicgmbh.de;Vukovic GmbH;Finthener Weg 5;65936;Frankfurt-Sossenheim;['Telefon: (069) 34 82 85 20', 'Fax: (069) 34 12 40']
info@bth-bauunternehmung.com;http://www.bth-bauunternehmung.com;BTH Bauunternehmung GmbH;Am Sportplatz 9;63633;Birstein;['Telefon: (06054) 9 11 70', 'Fax: (06054) 91 17 20']
info@knoll-haren.de;http://www.knoll-haren.de;Knoll GmbH & Co. KG;Feldstr. 48;65451;Kelsterbach;['Telefon: (06107) 7 05 96 70']
Michael.Zens@t-online.de;http://www.zens-dienstleistung-handwerk.jimdo.com;Zens;Erich-Kästner-Str. 11a;64572;Büttelborn-Klein-Gerau;['Telefon: (06152) 8 55 86 01', 'Fax: (06152) 8 55 86 32']
nl-ffm@johann-bunte.de;http://www.johann-bunte.de;Johann Bunte Bauunternehmung GmbH & Co. KG;Kleiner Kornweg 38;65451;Kelsterbach;['Telefon: (06107) 7 19 50', 'Fax: (06107) 71 95 11']
info@zeg-ffm.de;http://www.neubau-klinikum-frankfurt.de;Zentrale ErrichtungsGesellschaft mbH;Peter-Fischer-Allee 23;65929;Frankfurt-Höchst;['Telefon: (069) 93 49 33 50', 'Fax: (069) 9 34 93 35 39']
info@walter-schwarz-gmbh.de;http://www.walter-schwarz-gmbh.de;Schwarz Walter Bauunternehmung GmbH;Darmstädter Str. 58A;64572;Büttelborn;['Telefon: (06152) 5 78 86', 'Fax: (06152) 5 37 97']
info@grauel-hochbau.de;http://www.grauel-hochbau.de;Grauel Hoch + Tiefbau GmbH & Co. KG;Bachstr. 16;63633;Birstein;['Telefon: (06054) 60 11', 'Fax: (06054) 53 98']
info@schmidtbau-gmbh.de;http://www.schmidtbau-gmbh.de;Schmidt Bau GmbH;Florstädter Str. 69;61169;Friedberg;['Telefon: (06031) 79 48 00']
info@schmidtbau-gmbh.de;http://www.schmidtbau-gmbh.de;Schmidt Bau GmbH;Florstädter Str. 67;61169;Friedberg;['Telefon: (06031) 7 94 80']
info@bauprinzip.de;http://www.bauprinzip.de;Bauprinzip GmbH;In der Au 15;61440;Oberursel (Taunus);['Telefon: (06171) 6 94 19 70']
info@balfourbeatty.com;http://www.balfourbeatty.com;Balfour Beatty Rail GmbH;Silostr. 15;65929;Frankfurt-Unterliederbach;['Telefon: (069) 3 00 95 30']
boehme.bau@t-online.de;No Website Found;Böhme;Weinbergsweg 36;61348;Bad Homburg-Gonzenheim;['Telefon: (06172) 3 80 07 23']
info@bauunternehmen-engel.de;http://www.bauunternehmen-engel.de;Bauunternehmen Engel;Oberurseler Str. 66;61440;Oberursel (Taunus);['Telefon: (06171) 9 12 86 71', 'Telefon: (0176) 75 33 78 76', 'Fax: (06171) 9 12 87 69']
info@hl-bau.com;http://www.hl-bau.com;H & L Bau und Verwaltungs GmbH;Kaiser-Friedrich-Promenade 101;61348;Bad Homburg;['Telefon: (06172) 69 00 64']
office@mbabaugmbh.de;http://www.mbabaugmbh.de;MBA Bau GmbH;Siemensstr. 8A;61352;Bad Homburg;['Telefon: (06172) 49 24 88', 'Fax: (06172) 49 24 63']
info@jakob-noll.de;http://www.jakob-noll.de;Noll GmbH & Co. KG, Jakob;Silostr. 50;65929;Frankfurt-Unterliederbach;['Telefon: (069) 31 90 29', 'Fax: (069) 31 65 61']
info@fluegelgmbh.de;http://www.fluegelgmbh.de;Flügel GmbH;Erlenweg 7;64665;Alsbach-Hähnlein-Sandwiese;['Telefon: (06257) 43 43', 'Fax: (06257) 6 32 09']
info@sp-bau.de;http://sp-bau.de;SP Bau;Hortensienring 14;65929;Frankfurt-Unterliederbach;['Telefon: 0157 36 14 05 98']
info@muehlfeld-architektur.de;http://www.muehlfeld-architektur.de;Mühlfeld;Am Roßklingen 28;69483;Wald-Michelbach;['Telefon: (06207) 9 23 78 47', 'Fax: (06207) 9 23 79 00']
roho-gmbh@web.de;No Website Found;Roßmann & Homrighausen GmbH & Co. KG;Langwiesenweg 3;61440;Oberursel (Taunus)-Bommersheim;['Telefon: (06171) 5 34 17', 'Fax: (06171) 40 57']
fecken@t-online.de;No Website Found;Fecken;Mainstr. 4a;64665;Alsbach-Hähnlein-Sandwiese;['Telefon: (06257) 26 70', 'Fax: (06257) 9 39 51 00']
schmidt-bau-hg@t-online.de;http://www.h-schmidt-2.de;H. Schmidt II GmbH u. Co Hausverwaltung KG Heinrich;Schaberweg 28;61348;Bad Homburg;['Telefon: (06172) 2 60 60', 'Fax: (06172) 2 35 84']
info@d-dietz.de;http://www.d-dietz.de;Dietz;Rieslingstr. 22;64673;Zwingenberg;['Telefon: (06251) 98 29 70', 'Telefon: (0171) 6 27 22 29', 'Fax: (06251) 98 29 71']
info@henrich-bau.de;http://www.henrich-bau.de;Henrich Bau-GmbH;Rudolf-Diesel-Str. 14;65760;Eschborn;['Telefon: (06173) 6 30 30', 'Fax: (06173) 6 24 80']
info@mgt.de;http://www.meier-gastechnik.de;mgt tech GmbH;Bertha-von-Suttner Str. 3;61440;Oberursel;['Telefon: (06171) 70 99 70', 'Fax: (06171) 70 99 79']
info@geyer-trocknung.de;http://www.geyer-trocknung.de;Geyer Wolfgang;Waldstr. 39a;64668;Rimbach;['Telefon: (06253) 78 02', 'Telefon: (0172) 6 68 47 32', 'Fax: (06253) 8 69 82']
mail@bau-linke.de;http://www.bau-linke.de;Linke Andreas;Brandenburger Str. 77;61348;Bad Homburg;['Telefon: (06172) 96 93 43']
info@sanovagmbh.de;http://www.sanovagmbh.de;SANOVA Grundbesitz GmbH;Castillostr. 6;61348;Bad Homburg-Kirdorf;['Telefon: (06172) 8 20 80', 'Telefon: (0170) 8 33 42 29', 'Fax: (06172) 8 31 88']
info@bbheimbau.de;http://www.bbheimbau.de;BB Heimbau GmbH;Am Marktplatz 16;64521;Groß-Gerau;['Telefon: (06152) 9 27 58 88', 'Fax: (06152) 9 27 58 89']
piotrszydlowski.bud@gmail.com;http://sites.google.com/site/warmehaus/;Warme Haus;Friedrichstr. 37;64521;Groß-Gerau;['Telefon: 0176 26 50 28 36']
info@semo-bau.de;http://www.semo-bau.de;Semo Bau GmbH;Dorheimer Str. 14A;61169;Friedberg;['Telefon: (06031) 16 88 85', 'Fax: (06031) 16 88 86']
emka-baudeko@hotmail.com;No Website Found;EMKA Baudekoration;Nordendstr. 26;64521;Groß-Gerau;['Telefon: (06152) 36 56', 'Telefon: (0157) 79 78 64 70']
info@mueller-sht.de;http://www.mueller-sht.de;Müller Helmut;Oberdorfstr. 22;36396;Steinau;['Telefon: (06667) 6 96', 'Telefon: (0171) 2 76 14 91', 'Fax: (06667) 16 21']
info@mueller-hoch-tiefbau.de;http://www.mueller-hoch-tiefbau.de;Müller Heinrich GmbH;Riedackerweg 5;36396;Steinau;['Telefon: (06667) 91 90 80', 'Fax: (06667) 91 90 81']
info@hett-bau.de;http://www.hett-bau.de;Hett J. Heinrich Hett;Kirdorfer Str. 5;61350;Bad Homburg-Kirdorf;['Telefon: (06172) 8 10 88']
info@hett-bau.de;http://www.hett-bau.de;Hett Bauausführungen GmbH;Kirdorfer Str. 5;61350;Bad Homburg-Kirdorf;['Telefon: (06172) 8 23 08', 'Fax: (06172) 98 50 62']
info@lovric-bau.de;http://www.lovric-bau.de;Lovric Bau GmbH;Hardtbergstr. 10;65824;Schwalbach;['Telefon: (06196) 9 51 69 00']
info@laue-haus.de;http://www.laue-haus.de;Laue Haus GmbH;Am Seeberg 22;64625;Bensheim;['Telefon: (06251) 1 70 90', 'Fax: (06251) 17 09 19']
info@nold-bau.de;http://www.nold-bau.de;Nold I. Balthaser KG;Albert-Schweitzer-Str. 4;64521;Groß-Gerau;['Telefon: (06152) 22 21', 'Fax: (06152) 8 22 54']
kontakt@juengst-bau.de;http://www.juengst-bau.de;Jüngst Karl Heinz;Steinbacher Str. 28;61476;Kronberg;['Telefon: (06173) 6 33 24']
info@holzbau-luft.de;http://www.holzbau-luft.de;Luft Carsten;Schäferstr. 2;63633;Birstein;['Telefon: (06054) 91 70 77', 'Fax: (06054) 91 70 79']
bittel@lanz-bau.de;http://www.lanz-bau.de;Lanz P. Bau GmbH;Oberliederbacher Weg 25;65843;Sulzbach;['Telefon: (06196) 2 88 50', 'Fax: (06196) 2 37 38']
basa-bau@gmx.de;No Website Found;BASA-BAU GmbH;Industriestr. 8;61476;Kronberg-Oberhöchstadt;['Telefon: (06173) 5 06 07 91']
info@gebrkemmler.de;No Website Found;Gebr. Kemmler GmbH & Co. KG;Im Katzenforst 3;61476;Kronberg;['Telefon: (06173) 31 81 90', 'Fax: (06173) 3 18 19 10']
info@know-how-gmbh.de;http://www.know-how-gmbh.de;Know How Bauleistungen GmbH;Pfaffenwiese 37;65931;Frankfurt-Zeilsheim;['Telefon: (069) 36 00 99 97']
info@bernhardt-bau-ing.de;http://www.bernhardt-bau-ing.de;Bernhardt Bau Ing. mbH;Raiffeisenstr. 4;61191;Rosbach;['Telefon: (06003) 8 29 83 20', 'Fax: (06003) 8 29 83 21']
info@nowak-hochbau.de;http://www.nowak-hochbau.de;Nowak Planungs- und Massivbau GmbH;Alte Sattelfabrik 6;61350;Bad Homburg-Kirdorf;['Telefon: (06172) 8 30 20']
wolff-dieter.baumert@t-online.de;No Website Found;Immobau GmbH;Konrad-Adenauer-Allee 59;64569;Nauheim;['Telefon: (06152) 60 14', 'Fax: (06152) 6 46 18']
info@sperlingundpartner.de;http://www.sperlingundpartner.de;Baugesellschaft Sperling & Partner GmbH;In der Lache 7;63697;Hirzenhain;['Telefon: (06045) 22 53', 'Fax: (06045) 22 13']
info@metz-bau-gmbh.de;http://www.metz-bau-gmbh.de;Metz u. Heinze GmbH;Bertha-von-Suttner-Str. 6;64560;Riedstadt;['Telefon: (06158) 7 10 71', 'Fax: (06158) 7 16 85']
kraus.bau@t-online.de;http://www.kraus-bau-friedberg.de;Kraus Gerhard;Kaiserstr. 135;61169;Friedberg;['Telefon: (06031) 9 17 60', 'Fax: (06031) 77 14 31']
hamann-bau@gmx.de;http://www.hamann-bau.net;Hamann-Bau;Salzkopfweg 13;64646;Heppenheim-Kirschhausen;['Telefon: 0162 7 46 53 27']
info@eurovia.de;http://www.eurovia.de;Eurovia Teerbau GmbH;Kelsterbacher Str. 38-46;65479;Raunheim;['Telefon: (06142) 99 43 30', 'Fax: (06142) 99 43 39']
vertrieb@optimum-haus.de;http://www.optimum-haus.de;Optimum Massivhaus GmbH;Gutenbergstr. 8;65830;Kriftel;['Telefon: (06192) 9 51 99 90', 'Fax: (06192) 9 51 99 92']
schellhaasbaugmbh@t-online.de;No Website Found;Schellhaas Bau GmbH;Ginsterweg 5;64560;Riedstadt;['Telefon: (06158) 8 67 19', 'Telefon: (0171) 8 12 75 15', 'Fax: (06158) 82 88 86']
info@tiefbau-flach.de;http://www.tiefbau-flach.de;Flach GmbH & Co. KG, Heinrich;Loosweg 3a;63688;Gedern;['Telefon: (06045) 13 88', 'Fax: (06045) 73 85']
bau@andjelic.de;http://www.andjelic.de;Andjelic Bauunternehmen GmbH & Co. KG;Königsteiner Str. 51;65812;Bad Soden-Neuenhain;['Telefon: (06196) 2 23 32', 'Fax: (06196) 76 44 50']
info@eugen-hofmann.de;http://www.eugen-hofmann.de;Hofmann Eugen - Hoch,- Tief- und Ingenieurbau - GmbH;Bremer Str. 16;65824;Schwalbach;['Telefon: (06196) 5 61 04 40']
vc.kriftel.de@sto.com;http://www.sto.de;Sto SE & Co. KGaA;Gutenbergstr. 6;65830;Kriftel;['Telefon: (06192) 40 10', 'Fax: (06192) 40 12 98']
info@ma-bau.net;http://www.ma-bau.net;MA Bau UG;Am Born 2;65835;Liederbach;['Telefon: (069) 53 05 82 26']
info@dreher-bau.de;http://www.dreher-bau.de;Dreher & Klingsbigl Hoch- und Tiefbau GmbH;Darmstädter Str. 5;64625;Bensheim;['Telefon: (06251) 1 30 30', 'Fax: (06251) 13 03 33']
bauunternehmen@minnert-gmbh.de;http://www.minnert-gmbh.de;Heinrich Emil Minnert GmbH;Bisseser Str. 99;61209;Echzell;['Telefon: (06008) 3 94', 'Telefon: (0172) 6 17 50 70', 'Fax: (06008) 79 40']
wwerner@eurofinanzplan.de;http://www.eurofinanzplan.de;Werner Wolfgang;Kirchstr. 35;64839;Münster;['Telefon: (06071) 3 62 36']
mail@architekt-horst-ehlers.de;http://www.architekt-horst-ehlers.de;Architekt Horst Ehlers;Rudolf-Hilferding-Str. 74;60439;Frankfurt-Niederursel;['Telefon: (069) 65 00 86 91', 'Fax: (069) 65 00 86 92']
info@kq-projektentwicklung.de;http://www.kq-projektentwicklung.de;Schäfer Götz Dipl.-Ing.;Sandweg 35b;63571;Gelnhausen;['Telefon: (06051) 6 62 07', 'Telefon: (0170) 9 93 68 09']
info@klaus-heim.com;http://heim-woelk.de;Heim GmbH, Klaus;Friedrichstr. 35;63450;Hanau;['Telefon: (06181) 9 37 10', 'Fax: (06181) 93 71 31']
hkbauplan@t-online.de;http://www.hk-bauplan.de;Huther & Karawassilis Bauplan GmbH;Mainzer Str. 74;63322;Rödermark;['Telefon: (06074) 40 09 50', 'Fax: (06074) 4 00 95 25']
architekten@berndt-lorz.de;http://www.berndt-lorz.de;Berndt + Lorz;Metzlerstr. 23a;60594;Frankfurt-Sachsenhausen;['Telefon: (069) 61 20 11', 'Fax: (069) 61 13 08']
info@weropa.de;http://www.weropa.de;Weropa GmbH Bau Consult;Schützenstr. 14;64521;Groß-Gerau;['Telefon: (06152) 8 43 66', 'Fax: (06152) 96 17 75']
info@zeller-abbruch.de;http://www.zeller-abbruch.de;Robert Zeller GmbH & Co. KG;Bieberer Str. 263;63071;Offenbach;['Telefon: (069) 85 10 87']
info@hoefling.i-m.de;http://www.bau-hoefling.de;Höfling Baumarkt GmbH;Jahnstr. 3;63533;Mainhausen;['Telefon: (06182) 9 38 20', 'Fax: (06182) 2 85 15']
webmaster@hekus.de;http://www.hekus.de;Hekus Spannelemente e. K.;Zeilharder Str. 29;64409;Messel;['Telefon: (06159) 13 24', 'Fax: (06159) 12 20']
info@doppelboden.de;http://www.doppelboden.de;Götze Elementbau GmbH;Akazienweg 6;64665;Alsbach-Hähnlein;['Telefon: (06257) 5 05 28 80', 'Fax: (06257) 50 52 88 20']
info@selbstbau-system.de;http://www.einfachmassiv.de;Team-Haus-Bauträger GmbH;Am Waldesrand 5;64757;Rothenberg;['Telefon: (06068) 28 90', 'Fax: (06068) 37 80']
info@fg-hausbau.de;http://www.fg-baubetreuung.de;FG Baubetreuungs GmbH;Frankenstr. 14;64823;Groß-Umstadt;['Telefon: (06078) 91 10 23', 'Fax: (06078) 91 10 22']
info@immotec.org;http://www.immotec.org;Immotec Baumanagement und Projektsteuerungs GmbH;Goethering 56;63067;Offenbach;['Telefon: (069) 8 00 84 16', 'Fax: (069) 80 08 41 71']
info@rebstockgmbh.de;http://www.rebstockpark-ffm.de;Rebstock Projektgesellschaft mbH;Leonardo-da-Vinci-Allee 20;60486;Frankfurt-Bockenheim;['Telefon: (069) 7 16 73 80', 'Fax: (069) 71 67 38 79']
info@bau-natura.de;http://www.bau-natura.de;Bau-Natura GmbH;Eschollbrücker Str. 41;64295;Darmstadt;['Telefon: (06151) 3 91 96 19']
info@bam-services.de;http://www.bam-services.de;BAM Services GmbH;Eschborner Landstr. 55;60489;Frankfurt-Rödelheim;['Telefon: (069) 74 22 61 23']
info@weiss-bau-sanierung.de;http://www.weiss-bau-sanierung.de;Weiss Bau und Sanierung UG;Robert-Bosch-Str. 44;61184;Karben-Klein-Karben;['Telefon: (06039) 2 09 01 91', 'Fax: (06039) 2 09 21 38']
info@rachor-bau.de;http://www.rachor-bau.de;Rachor Rainer;Jahnstr. 5;63533;Mainhausen;['Telefon: (06182) 2 15 31', 'Fax: (06182) 2 11 09']
info@baugeschaeft-nold.de;http://www.baugeschaeft-nold.de;Baugeschäft Günter Nold e. K.;Sudetenstr. 37;64521;Groß-Gerau;['Telefon: (06152) 72 41', 'Fax: (06152) 90 97 37']
info@adicon.de;http://www.adicon.de;adicon Ges. für Bauwerksabdichtungen mbH;Max-Planck-Str. 6;63322;Rödermark;['Telefon: (06074) 8 95 10', 'Fax: (06074) 89 51 51']
info@krebsbau.de;http://www.krebsbau.de;Krebs GmbH Bau & Immobilien;Königsberger Str. 16;63814;Mainaschaff;['Telefon: (06021) 48 03 33']
info@schwager-bau.com;http://www.schwager-bau.com;Schwager Baubetreuung GmbH;Nordring 37a;64347;Griesheim;['Telefon: (06155) 86 87 10', 'Fax: (06155) 8 68 71 09']
info@winkel-dreieich.de;http://www.baugesellschaft-winkel.de;Winkel Baugesellschaft mbH;Ringstr. 54;63303;Dreieich;['Telefon: (06103) 98 14 70']
frankfurt@bouwfonds.de;http://www.bouwfonds-frankfurt.de;Bouwfonds Rhein-Main GmbH;Stresemannallee 28;60596;Frankfurt-Sachsenhausen;['Telefon: (069) 2 19 79 80', 'Telefon: 0800  2 68 93 66']
kontakt@tecnomagnete.com;http://www.tecnomagnete.com;TECNOMAGNETE GmbH;Ohmstr. 4;63225;Langen;['Telefon: (06103) 75 07 30']
info@seniobau.com;http://www.seniobau.com;Senio Bau GmbH & Co.KG;Friedrich-Hartung-Str. 2;64560;Riedstadt;['Telefon: (06158) 91 78 54']
info@roedergroup.de;http://www.röder.de;Röder GmbH & Co. KG;Rudolf-Diesel-Str. 5;63599;Biebergemünd-Wirtheim;['Telefon: (06050) 9 09 60', 'Fax: (06050) 90 96 29']
info@ebs-euchner.com;http://www.ebs-euchner.de;Euchner Büro und Schulsysteme GmbH;Ernst-Leitz-Str. 3;63150;Heusenstamm;['Telefon: (06104) 96 38 50', 'Fax: (06104) 17 83']
abego@online.de;http://www.abego-holzhaus.com;ABEGO Holzhaus GmbH;Philosophenweg 12;63619;Bad Orb;['Telefon: (06052) 92 81 49', 'Telefon: (0173) 6 54 24 45']
info@schultheis-dach.de;http://www.schultheis-bedachungen.de;Schultheis Christian;Ringstr. 40-44;63486;Bruchköbel;['Telefon: (06181) 9 93 90', 'Fax: (06181) 99 39 29']
info@roell-dach.de;http://www.roell-dach.de;Röll;Berliner Str. 5;63628;Bad Soden-Salmünster;['Telefon: (06056) 87 36', 'Fax: (06056) 44 48']
info@zieres.de;http://www.zieres.de;Zieres & Götz Baudekoration GmbH;An den Banggärten 12;61118;Bad Vilbel-Massenheim;['Telefon: (06101) 45 45']
kontakt@geres.de;http://www.geres-ffm.de;GERES mbH & Co. KG;An den Bergen 28;60437;Frankfurt-Nieder-Erlenbach;['Telefon: (06101) 4 08 12 00', 'Fax: (06101) 4 08 12 05']
bibert@t-online.de;http://www.erdbewegung-bibert.de;Bibert Nico;Adam-Wöber-Str. 5;64720;Michelstadt;['Telefon: (06061) 9 69 99 29']
info@lf-estrichbau.de;http://www.lf-estrichbau.de;L & F Multiservice GmbH;Spessartstr. 26;64846;Groß-Zimmern-Klein-Zimmern;['Telefon: (06071) 95 17 41', 'Telefon: (0172) 6 99 12 11', 'Fax: (06071) 95 17 42']
service@kinzighaus.de;http://www.kinzighaus.de;Kinzighaus Bau GmbH;Im Stockborn 16;63505;Langenselbold;['Telefon: (06184) 92 99 90', 'Fax: (06184) 9 29 99 90']
info@engelhardt-haus.de;http://www.engelhardt-haus.de;Engelhardt GmbH & Co. KG E.;Werner-von-Siemens-Str 40;64711;Erbach;['Telefon: (06062) 9 40 20', 'Fax: (06062) 6 18 91']
info@christianseemann.de;http://www.christianseemann.de;Seemann Christian GmbH;Ludwig-Erhard-Str. 13;61118;Bad Vilbel;['Telefon: (06101) 8 30 43', 'Fax: (06101) 1 23 92']
ofice@elk.at;http://www.elk-fertighaus.de;ELK Fertighaus AG;Ludwig-Erhard-Str. 4;61118;Bad Vilbel;['Telefon: (06101) 1 24 79']
info@vfi.de;http://www.vfi-immobilien.de;vfi gesellschaft für vermögens-, finanz- u. immobiliendienstleistungen mbH;Buchbergblick 24;63505;Langenselbold;['Telefon: (06184) 90 05 25']
info@keranova.de;http://www.keranova.de;keranova;Frankenhäuser Str. 16;64372;Ober-Ramstadt;['Telefon: (06167) 76 74']
info@bau-hess.de;http://www.bau-hess.de;Heß Bauunternehmen GmbH;In der Aue 27;64385;Reichelsheim;['Telefon: (06164) 5 47 47', 'Fax: (06164) 5 47 49']
mail@suppro.de;http://www.suppro.de;Suppro GmbH;Kirdorfer Str. 23;61350;Bad Homburg-Kirdorf;['Telefon: (06172) 1 77 05 25']
WG-Bau@t-online.de;http://www.wg-bau.net;WG-Bau Bauunternehmen GbR;Waldstr. 27;64404;Bickenbach;['Telefon: (06257) 6 88 25', 'Fax: (06257) 90 56 53']
bielesch@t-online.de;No Website Found;Bielesch Garten- u. Landschaftsbau;Ringstr. 19;64395;Brensbach;['Telefon: (0170) 4 47 65 95', 'Fax: (06161) 87 75 62']
info@glaserei-jacob.de;http://www.glaserei-jacob.de;Glaserei Jacob GmbH;Brüningstr. 1;63457;Hanau;['Telefon: (06181) 1 28 36', 'Fax: (06181) 1 79 91']
geminy@t-online.de;http://www.geminy.de;GEMINY Baumanagement GmbH;Rabensteiner Str. 32;36396;Steinau;['Telefon: (06667) 9 60 10', 'Fax: (06667) 96 01 20']
info@aim-bensheim.de;http://www.aim-bensheim.de;AIM GmbH & Co. KG;Darmstädter Str. 121;64625;Bensheim-Auerbach;['Telefon: (06251) 93 89 41']
service@vogtel-haustechnik.de;http://www.vogtel-haustechnik.de;Dipl.-Ing. Vogtel-Haustechnik GmbH;Wilhelm-Lehr-Str. 42;64839;Münster;['Telefon: (06071) 3 31 11']
mail@wienziers.de;http://www.wienziers.de;Klaus Wienziers GmbH;Siemensstr. 40;61130;Nidderau;['Telefon: (06187) 9 29 70', 'Fax: (06187) 92 97 31']
info-solutions@hochtief.de;http://www.hochtief-solutions.de;HOCHTIEF Solutions AG;Löwenstr. 5;63067;Offenbach;['Telefon: (069) 80 08 78 30']
info@thaler-bau.de;No Website Found;Uwe Thaler Spezialbau GmbH;Dorfstr. 17;64658;Fürth;['Telefon: (06253) 94 33 08', 'Fax: (06253) 94 33 10']
info@bauwerk-immobilienservice.de;http://www.bauwerk-immobilienservice.de;Bauwerk GmbH;Freihofplatz 1;63500;Seligenstadt;['Telefon: (06182) 82 98 26']
info@terramag.de;http://www.terramag.de;Wunschgrundstück GmbH;Westbahnhofstr. 36;63450;Hanau;['Telefon: (06181) 90 80 20']
info@grundconsult.de;http://www.grundconsult.de;Grundconsult Immobilien Gesellschaft mbH;Kennedyallee 78;60596;Frankfurt-Sachsenhausen;['Telefon: (069) 9 63 16 70']
info@phoenixrealestate.de;http://www.phoenix-holding.de;Phoenix Real Estate Development GmbH;Guiollettstr. 48;60325;Frankfurt-Westend-Süd;['Telefon: (069) 9 57 38 00']
info@gs-gruppe.de;http://www.gs-gruppe.de;GS Real Estate GmbH;Roseggerstr. 31;60320;Frankfurt-Dornbusch;['Telefon: (069) 56 00 03 30']
info@graefe-baustatik.de;http://www.graefe-baustatik.de;Gräfe Rainer Dr.-Ing.;Buchwaldstr. 29;63303;Dreieich;['Telefon: (06103) 6 17 60', 'Fax: (06103) 50 21 68']
britta@baustatik-gruen.de;http://www.baustatik-gruen.de;Grün Britta;Berger Str. 27;61138;Niederdorfelden;['Telefon: (06101) 5 58 04 18']
info@bauserve.net;http://www.bauserve.com;Bauserve GmbH;Zum Schlegelhof ;60594;Frankfurt-Sachsenhausen;['Telefon: (069) 66 37 76 54']
info@bauserve.net;http://www.bauserve.com;Bauserve GmbH;Große Eschenheimer Str. 12;60313;Frankfurt-Innenstadt;['Telefon: (069) 29 99 28 35']
info@bauserve.net;http://www.bauserve.com;Bauserve GmbH;Goldsteinstr. 114;60528;Frankfurt-Niederrad;['Telefon: (069) 25 53 88 34 53']
info@bauserve.net;http://www.bauserve.com;Bauserve GmbH;Hamburger Allee 2;60486;Frankfurt-Westend-Süd;['Telefon: (069) 70 79 36 51']
info@bauserve.net;http://www.bauserve.com;Bauserve GmbH;Flughafen Frankfurt am Main 204;60549;Frankfurt-Flughafen;['Telefon: (069) 69 86 77 84']
kontakt@wallauer-fachwerk.de;http://www.krecker-ing.de;Krecker Hans-Peter Dipl.-Ing.;Jahnstr. 10a;65843;Sulzbach;['Telefon: (06196) 58 04 33']
info@planen-bauen.eu;http://www.planen-bauen-beraten.de;Planen & Bauen GmbH;Darmstädter Str. 172;64625;Bensheim-Auerbach;['Telefon: (06251) 85 67 70', 'Fax: (06251) 85 67 71 99']
info@ig-baso.de;http://www.ig-baso.de;Ingenieurgemeinschaft für Bauwesen Bad Soden GbR;Auf der Krautweide 30;65812;Bad Soden;['Telefon: (06196) 5 06 70', 'Fax: (06196) 50 67 15']
info@kwdienstleistungen.de;http://www.kwdienstleistungen.de;KW Dienstleistungen;Fahrstr. 9;63512;Hainburg;['Telefon: (06182) 99 21 77', 'Fax: (06182) 99 23 50']
info@kontec-bau.com;http://www.kontec-bau.com;Wegge Marschall GbR;Ginnheimer Landstr. 19;60487;Frankfurt-Bockenheim;['Telefon: (069) 97 78 58 89', 'Fax: (069) 97 94 45 07']
ausbau@rum-ausbau.de;http://www.rum-ausbau.de;R & M Ausbau Frankfurt GmbH;Carl-Zeiss-Str. 10/3;63322;Rödermark;['Telefon: (06074) 9 20 00', 'Fax: (06074) 92 00 44']
Wolfgang.Rau@WR-Isolierungen.de;http://www.wr-isolierungen.de;Rau Wolfgang;Ringstr. 70;64319;Pfungstadt;['Telefon: (06157) 72 30', 'Fax: (06157) 8 69 76']
info@a-z-dienste.de;http://www.a-z-badsanierung.de;A-Z Dienste;Westendstr. 19;60325;Frankfurt-Westend-Süd;['Telefon: (069) 97 54 63 99', 'Telefon: (0171) 3 31 11 50']
gaertner2000eka@aol.com;http://www.eka-edelstahlkamine.de;Gärtner Industrievertretung;Römerweg 23;63303;Dreieich;['Telefon: (06103) 8 48 36', 'Fax: (06103) 8 68 16']
info@link-tankstellenbau.de;http://www.link-tankstellenbau.de;Link GmbH Tankstellenbau;Liebigstr. 3;63110;Rodgau-Weiskirchen;['Telefon: (06106) 28 57 60', 'Fax: (06106) 2 85 76 19']
sk-bau-gmbh@web.de;No Website Found;S & K Bau GmbH;Karolingerstr. 9;63128;Dietzenbach-Steinberg;['Telefon: (06074) 2 11 38 90', 'Telefon: (0171) 7 43 81 78', 'Fax: (06074) 2 11 38 91']
info@roth-baudekoration.de;http://www.roth-baudekoration.de;Roth Baudekoration GmbH;Borngasse 17;63500;Seligenstadt;['Telefon: (06182) 70 18', 'Telefon: (0172) 6 70 93 36', 'Fax: (06182) 6 58 53']
info@h-kronenberger.de;http://www.h-kronenberger.de;Kronenberger u. Sohn GmbH, H.;Benzstr. 16;63457;Hanau;['Telefon: (06181) 95 77 50', 'Fax: (06181) 9 57 75 77']
kontakt@steinbaudeko.de;http://www.steinbaudeko.de;Stein & Co. GmbH;Birkenweiher Str. 3;63505;Langenselbold;['Telefon: (06184) 29 60', 'Fax: (06184) 14 66']
Pu-Ma@gmx.de;http://www.malermeister-frank.de;Frank, Hans GmbH;Lochwiesenstr. 8;63150;Heusenstamm;['Telefon: (06104) 52 82', 'Telefon: (0177) 2 69 48 79', 'Fax: (06104) 6 27 89']
info@baudekoration-burger.de;http://www.baudekoration-burger.de;Burger GmbH;Robert-Bosch-Str. 15-17;63477;Maintal;['Telefon: (06181) 94 09 00', 'Fax: (06181) 9 40 90 20']
hebau-nidderau@t-online.de;http://www.hebau-heppding.de;Heppding Elgerd Baudekoration GmbH;In der Wolfskaute 5;61130;Nidderau;['Telefon: (06187) 2 22 00', 'Fax: (06187) 2 22 43']
info@hepp-gmbh.de;http://www.hepp-gmbh.de;Hepp GmbH;Breslauer Str. 4;63628;Bad Soden-Salmünster;['Telefon: (06056) 9 19 40', 'Fax: (06056) 91 94 50']
mail@maler-schmidt.de;http://www.maler-schmidt.de;Maler Schmidt GmbH;Kelsterbacher Str. 42;60528;Frankfurt-Niederrad;['Telefon: (069) 67 67 47']
info@treutel.net;http://www.arno-treutel.de;Treutel Bernhard;Friedhofstr. 3;65451;Kelsterbach;['Telefon: (06107) 50 44', 'Fax: (06107) 84 73']
info@rolo-baudekoration.de;http://www.rolo-baudekoration.de;Rolo Baudekoration Gmbh;Raiffeisenstr. 16;64560;Riedstadt;['Telefon: (06158) 18 56 55']
info@press-baudeko.de;http://www.press-baudeko.de;Press Michael;Paul-Duden-Str. 84;65830;Kriftel;['Telefon: (06192) 4 24 14', 'Fax: (06192) 44 09 71']
info@baudekoration-weber.de;http://www.baudekoration-weber.de;Weber Thomas GmbH;An der Berufsschule 5;63667;Nidda;['Telefon: (06043) 28 22', 'Fax: (06043) 4 06 45']
info@wiercimokbau.de;http://www.wiercimokbau.de;Wiercimok Bau GmbH;Senefelder Str. 1K;63110;Rodgau-Nieder-Roden;['Telefon: (06106) 7 79 95 81', 'Fax: (06106) 7 79 95 78']
info@rose-kabelmontage.de;http://www.rose-kabelmontage.de;Rose Kabel-Montage GmbH;Am Rotböll 4;64331;Weiterstadt;['Telefon: (06150) 9 67 60', 'Fax: (06150) 70 14']
info@rodams.de;http://www.rodams.de;Roda Montage u. Service GmbH;Am Berg 7a;64546;Mörfelden-Walldorf;['Telefon: (06105) 91 28 30']
info@winkler-montagebau.de;http://www.winkler-montagebau.de;Horst Winkler Montagebau GmbH;Am Kalkofen 5;61206;Wöllstadt;['Telefon: (06034) 9 18 80', 'Fax: (06034) 91 88 22']
info@trenkwalder.com;http://www.trenkwalder.com;Trenkwalder Personaldienste GmbH;Zeil 46;60313;Frankfurt-Innenstadt;['Telefon: (069) 21 08 59 90', 'Fax: (069) 2 10 85 99 29']
office@salco-group.com;http://www.salco-immobilien.de;Salco Ges. f. Projektentwicklung und Baumanagement mbH;Flachsbachstr. 3;63225;Langen;['Telefon: (06103) 9 03 83']
mail@proprojekt.de;http://www.proprojekt.de;ProProjekt Planungsmanagement & Projektberatung GmbH;Hedderichstr. 108110;60596;Frankfurt-Sachsenhausen;['Telefon: (069) 6 05 01 14 00', 'Fax: (069) 6 05 01 14 44']
tkern@swr-gmbh.de;http://www.swr-gmbh.de;Südwestdeutsche Rohrleitungsbau GmbH;Industriestr. 27;64807;Dieburg;['Telefon: (06071) 2 18 36', 'Fax: (06071) 8 18 76']
info@kuechler-rohrleitungsbau.de;http://www.kuechler-rohrleitungsbau.de;Küchler Rohrleitungs- und Tiefbau GmbH Wilhelm;Siemensstr. 15;63128;Dietzenbach-Steinberg;['Telefon: (06074) 40 72 00', 'Fax: (06074) 4 07 20 40']
info@svbuero-bau.de;http://www.svbuero-bau.de;Bürogemeinschaft für Bausachverständige;Philipp-Reis-Str. 14;63128;Dietzenbach-Steinberg;['Telefon: (06074) 2 11 47 60']
info@bauberatung-thom.de;http://www.bauberatung-thom.de;Thom Norbert;Wittenberger Str. 10;63674;Altenstadt;['Telefon: (06047) 95 15 60', 'Fax: (06047) 95 15 61']
info@bau-svbuero.de;http://www.bau-svbuero.de;Bürogemeinschaft Edelmeier, Deutsch, Beilfuss;Uhlandstr. 1;61440;Oberursel (Taunus);['Telefon: (06171) 58 69 90', 'Fax: (06171) 5 86 99 11']
info@jung-bausachverstaendiger.de;http://www.jung-bausachverstaendiger.de;Jung Sachverständigen GmbH;Brandenburger Str. 45;61348;Bad Homburg;['Telefon: (06172) 9 66 70']
reinhard_lortz@web.de;http://www.lortz-gmbh.de;Lortz Reinhard Dipl.-Ing.;Waldstr. 19A;64397;Modautal-Klein-Bieberau;['Telefon: (06167) 5 34', 'Telefon: (0171) 5 26 11 29', 'Fax: (06167) 73 75']
info@wiercimokbau.de;http://www.wiercimokbau.de;Wiercimok Arthur Maurer u. Betonbaumeister;Am Feldrain 12a;63741;Aschaffenburg-Strietwald;['Telefon: (06021) 58 21 49']
gallandy@t-online.de;http://www.gallandy.de;Gallandy Rainer;Ernst-Ludwig-Str. 3;64560;Riedstadt;['Telefon: (06158) 7 37 44', 'Fax: (06158) 7 42 99']
info@huennebeck.com;http://www.huennebeck.de;Harsco Infrastructure Deutschland GmbH;Gräfenhäuser Str. 201;64293;Darmstadt;['Telefon: (06151) 87 00 40', 'Fax: (06151) 8 70 04 33']
teamconcept@strabag.com;http://www.strabag.de;OOMS-Ittner-Hof GmbH;Robert-Bosch-Str. 9;64293;Darmstadt;['Telefon: (06151) 3 30 36 22', 'Fax: (06151) 3 30 36 60']
teamconcept@strabag.com;http://www.strabag.de;OOMS-Ittner-Hof GmbH;Waldstr. 6;64331;Weiterstadt;['Telefon: (06151) 89 88 57']
info@alk-haustechnik.de;http://www.alk-haustechnik.de;ALK Haustechnik GmbH;Wilhelmstr. 42;63071;Offenbach;['Telefon: (069) 81 08 18', 'Fax: (069) 82 35 44']
kontakt@roos-freizeitanlagen.de;http://www.roos-freizeitanlagen.de;ROOS Freizeitanlagen GmbH;Herrnstr. 40;63674;Altenstadt;['Telefon: (06047) 23 93', 'Fax: (06047) 16 03']
info@obertshausen.de;http://www.obertshausen.de;Magistrat der Stadt Obertshausen;Schubertstr. 11;63179;Obertshausen;['Telefon: (06104) 70 30', 'Telefon: (06104) 7 03 51 11', 'Fax: (06104) 7 03 88 88']
michael.reibold@t-online.de;http://www.reibold-natursteine.de;Reibold Michael & Sohn GmbH;Mühlstr. 4;64668;Rimbach-Zotzenbach;['Telefon: (06253) 61 32']
info@josef-kipp.de;http://www.josef-kipp.de;Josef Kipp GmbH;Stroofstr. 27;65933;Frankfurt-Griesheim;['Telefon: (069) 38 30 00', 'Fax: (069) 38 99 83 72']
info@rudolph-strassenbau.de;http://www.rudolph-strassenbau.de;Rudolph Peter;Sudetenstr. 38;64839;Münster;['Telefon: (06071) 3 31 67', 'Fax: (06071) 3 86 94']
feldmannkg@t-online.de;http://www.feldmannkg.de;Feldmann KG;Kiesstr. 12;64560;Riedstadt;['Telefon: (06158) 8 38 33', 'Fax: (06158) 8 67 01']
resul.rhein@gmx.de;No Website Found;R. Rhein Bauunternehmen GmbH;Mainzer Str. 83;64293;Darmstadt-Nord;['Telefon: (06151) 9 06 77 20', 'Fax: (06151) 9 06 77 21']
mueller-tiefbau@hotmail.de;No Website Found;Müller Alexander;Im Steinigen Graben 22;63571;Gelnhausen-Hailer;['Telefon: (06051) 7 00 40 78', 'Fax: (06051) 7 00 40 79']
info@langendorf-iii.de;http://www.langendorf-tiefbau.de;Langendorf III W. Ing. GmbH & Co. KG;Dammstr. 10;64331;Weiterstadt;['Telefon: (06150) 5 00 70', 'Fax: (06150) 50 07 50']
info@weiler.info;http://www.weiler.info;Weiler Tief- u. Rohrleitungsbau GmbH;Im Kalk 3-5;60437;Frankfurt-Harheim;['Telefon: (06101) 4 04 02', 'Fax: (06101) 40 41 18']
valt.frick@t-online.de;No Website Found;Frick Valentin;Carl-Benz-Str. 3;64319;Pfungstadt;['Telefon: (06157) 35 47', 'Fax: (06157) 36 49']
js.bau@t-online.de;http://www.js-bau-gmbh.de;JS Hoch- und Tiefbau GmbH;Neulandstr. 15;63628;Bad Soden-Salmünster;['Telefon: (06056) 91 10 94']
mail@bauer-tiefbaugesellschaft.de;http://www.bauer-tiefbaugesellschaft.de;Bauer Horst;Brunhildenstr. 11;64658;Fürth;['Telefon: (06253) 2 14 09', 'Fax: (06253) 93 00 31']
schreinereifriedrich@gmx.de;http://www.denkmal-schutz.com;Schreinerei Friedrich GmbH;Friedberger Landstr. 54;60316;Frankfurt;['Telefon: (069) 43 43 72', 'Fax: (069) 44 09 93']
info@schreinerei-holz.de;http://www.schreinerei-holz.de;Holz Hans-Dieter;Fahrenbacher Str. 66;64658;Fürth-Fahrenbach;['Telefon: (06253) 8 59 72', 'Fax: (06253) 74 73']
info@betomix-bma.de;http://www.betomix-bma.de;Betomix Transportbeton GmbH & Co.KG;Am Floßhafen 79;63743;Aschaffenburg-Innenstadt;['Telefon: (06021) 2 52 71', 'Telefon: (06021) 9 63 24', 'Fax: (06021) 9 32 36']
info@treppen-back.de;http://www.back-treppen.de;Back Treppenstudio GmbH;Wittelsbacherallee 37-39;60316;Frankfurt-Ostend;['Telefon: (069) 49 04 09', 'Fax: (069) 44 12 34']
sadowski.misza@googlemail.com;No Website Found;Sadowski Mariusz - Trockenbau;Adolfstr. 1a;60528;Frankfurt-Niederrad;['Telefon: (0172) 6 82 68 97']
info@debac.de;http://www.debac.de;Debac Trockenbau GmbH;Robert-Bosch-Str. 34;63225;Langen;['Telefon: (06103) 7 30 41', 'Fax: (06103) 7 30 43']
info@ploesser-gmbh.de;http://www.ploesser-gmbh.de;Plösser Putz-, Anstrich-, Trockenbau GmbH;Alt Hoxhohl 30;64397;Modautal;['Telefon: (06167) 3 35', 'Fax: (06167) 10 61']
info@team-eurotec.com;http://www.team-eurotec.com;EUROTEC GmbH;Im Höhlchen 12;63654;Büdingen;['Telefon: (06048) 9 61 60']
computer@schoenigerweb.de;http://www.schoenigerweb.de;SAALBAU Bornheim;Arnsburger Str. 24;60385;Frankfurt-Ostend;['Telefon: (069) 9 43 40 30', 'Fax: (069) 94 34 03 30']
mail@hlb-online.de;http://www.hessischelandesbahn.de;Hessische Landesbahn GmbH;Am Hauptbahnhof 18;60329;Frankfurt-Bahnhofsviertel;['Telefon: (069) 2 42 52 40', 'Fax: (069) 24 25 24 60']
info@betriebsberatung-bau.de;http://www.zeittechnik-verlag.de;Zeittechnik-Verlag GmbH;Friedhofstr. 13;63263;Neu-Isenburg;['Telefon: (06102) 36 73 70', 'Fax: (06102) 3 19 60']
info@frankfurt.helvetia.de;http://www.helvetia.com;Helvetia;Berliner Str. 56-58;60311;Frankfurt-Altstadt;['Telefon: (069) 1 33 20', 'Fax: (069) 29 98 63 66', 'Fax: (069) 1 33 24 74']
info@VDEI.de;http://www.vdei.de;Verband Deutscher Eisenbahn-Ingenieure e.V.;Kaiserstr. 61;60329;Frankfurt-Bahnhofsviertel;['Telefon: (069) 23 61 71', 'Fax: (069) 23 12 19']
info@cds-wohnbau.de;http://www.cds-wohnbau.de;Cds Wohnbau GmbH;Stresemannallee 30;60596;Frankfurt-Sachsenhausen;['Telefon: (069) 68 97 47 70', 'Fax: (069) 6 89 74 77 29']
info@wohnbau-hess.de;http://www.wohnbau-hess.de;Wohnbau Hess GmbH & Co. KG;Parkstr. 20;61118;Bad Vilbel;['Telefon: (06101) 5 05 00', 'Telefon: (0171) 4 91 14 72']
service@hawobau.de;http://www.hawobau.de;Hattersheimer Wohnungsbau GmbH;Pregelstr. 1a;65795;Hattersheim;['Telefon: (06190) 93 66 56']
info@kom-bau.de;http://www.kom-bau.de;KOM Bauunternehmung GmbH;Hamburger Allee 26-28;60486;Frankfurt-Bockenheim;['Telefon: (069) 94 98 61 86']
